aulas-praticas/simulation/qsim/tdexemplo1.msim.vcd
$comment
	File created using the following command:
		vcd file tdexemplo1.msim.vcd -direction
$end
$date
	Fri Oct 10 11:07:43 2025
$end
$version
	ModelSim Version 10.1d
$end
$timescale
	1ps
$end
$scope module tdexemplo5_vlg_vec_tst $end
$var reg 1 ! a $end
$var reg 1 " b $end
$var reg 1 # c $end
$var wire 1 $ S $end
$var wire 1 % sampler $end
$scope module i1 $end
$var wire 1 & gnd $end
$var wire 1 ' vcc $end
$var wire 1 ( unknown $end
$var tri1 1 ) devclrn $end
$var tri1 1 * devpor $end
$var tri1 1 + devoe $end
$var wire 1 , S~output_o $end
$var wire 1 - a~input_o $end
$var wire 1 . c~input_o $end
$var wire 1 / b~input_o $end
$var wire 1 0 S~0_combout $end
$upscope $end
$upscope $end
$enddefinitions $end
#0
$dumpvars
0!
0"
0#
x$
x%
0&
1'
x(
1)
1*
1+
x,
0-
0.
0/
x0
$end
#3668
10
#5000
1#
0%
#5517
1.
#8124
1,
1$
#10000
1"
0#
1%
#10507
1/
#10691
0.
#15000
1#
0%
#15517
1.
#20000
1!
0"
0#
1%
#20507
1-
#20681
0/
#20691
0.
#25000
1#
0%
#25517
1.
#30000
1"
0#
1%
#30507
1/
#30691
0.
#33880
00
#34493
10
#35000
1#
0%
#35517
1.
#39049
00
#40000
0!
0"
0#
1%
#40681
0/
0-
#40691
0.
#43405
0,
0$
#44349
10
#45000
1#
0%
#45517
1.
#48805
1,
1$
#50000
1"
0#
1%
#50507
1/
#50691
0.
#55000
1#
0%
#55517
1.
#60000
1!
0"
0#
1%
#60507
1-
#60681
0/
#60691
0.
#65000
1#
0%
#65517
1.
#70000
1"
0#
1%
#70507
1/
#70691
0.
#73880
00
#74493
10
#75000
1#
0%
#75517
1.
#79049
00
#80000
0!
0"
0#
1%
#80681
0/
0-
#80691
0.
#83405
0,
0$
#84349
10
#85000
1#
0%
#85517
1.
#88805
1,
1$
#90000
1"
0#
1%
#90507
1/
#90691
0.
#95000
1#
0%
#95517
1.
#100000
1!
0"
0#
1%
#100507
1-
#100681
0/
#100691
0.
#105000
1#
0%
#105517
1.
#110000
1"
0#
1%
#110507
1/
#110691
0.
#113880
00
#114493
10
#115000
1#
0%
#115517
1.
#119049
00
#120000
0!
0"
0#
1%
#120681
0/
0-
#120691
0.
#123405
0,
0$
#124349
10
#125000
1#
0%
#125517
1.
#128805
1,
1$
#130000
1"
0#
1%
#130507
1/
#130691
0.
#135000
1#
0%
#135517
1.
#140000
1!
0"
0#
1%
#140507
1-
#140681
0/
#140691
0.
#145000
1#
0%
#145517
1.
#150000
1"
0#
1%
#150507
1/
#150691
0.
#153880
00
#154493
10
#155000
1#
0%
#155517
1.
#159049
00
#160000
0!
0"
0#
1%
#160681
0/
0-
#160691
0.
#163405
0,
0$
#164349
10
#165000
1#
0%
#165517
1.
#168805
1,
1$
#170000
1"
0#
1%
#170507
1/
#170691
0.
#175000
1#
0%
#175517
1.
#180000
1!
0"
0#
1%
#180507
1-
#180681
0/
#180691
0.
#185000
1#
0%
#185517
1.
#190000
1"
0#
1%
#190507
1/
#190691
0.
#193880
00
#194493
10
#195000
1#
0%
#195517
1.
#199049
00
#200000
0!
0"
0#
1%
#200681
0/
0-
#200691
0.
#203405
0,
0$
#204349
10
#205000
1#
0%
#205517
1.
#208805
1,
1$
#210000
1"
0#
1%
#210507
1/
#210691
0.
#215000
1#
0%
#215517
1.
#220000
1!
0"
0#
1%
#220507
1-
#220681
0/
#220691
0.
#225000
1#
0%
#225517
1.
#230000
1"
0#
1%
#230507
1/
#230691
0.
#233880
00
#234493
10
#235000
1#
0%
#235517
1.
#239049
00
#240000
0!
0"
0#
1%
#240681
0/
0-
#240691
0.
#243405
0,
0$
#244349
10
#245000
1#
0%
#245517
1.
#248805
1,
1$
#250000
1"
0#
1%
#250507
1/
#250691
0.
#255000
1#
0%
#255517
1.
#260000
1!
0"
0#
1%
#260507
1-
#260681
0/
#260691
0.
#265000
1#
0%
#265517
1.
#270000
1"
0#
1%
#270507
1/
#270691
0.
#273880
00
#274493
10
#275000
1#
0%
#275517
1.
#279049
00
#280000
0!
0"
0#
1%
#280681
0/
0-
#280691
0.
#283405
0,
0$
#284349
10
#285000
1#
0%
#285517
1.
#288805
1,
1$
#290000
1"
0#
1%
#290507
1/
#290691
0.
#295000
1#
0%
#295517
1.
#300000
1!
0"
0#
1%
#300507
1-
#300681
0/
#300691
0.
#305000
1#
0%
#305517
1.
#310000
1"
0#
1%
#310507
1/
#310691
0.
#313880
00
#314493
10
#315000
1#
0%
#315517
1.
#319049
00
#320000
0!
0"
0#
1%
#320681
0/
0-
#320691
0.
#323405
0,
0$
#324349
10
#325000
1#
0%
#325517
1.
#328805
1,
1$
#330000
1"
0#
1%
#330507
1/
#330691
0.
#335000
1#
0%
#335517
1.
#340000
1!
0"
0#
1%
#340507
1-
#340681
0/
#340691
0.
#345000
1#
0%
#345517
1.
#350000
1"
0#
1%
#350507
1/
#350691
0.
#353880
00
#354493
10
#355000
1#
0%
#355517
1.
#359049
00
#360000
0!
0"
0#
1%
#360681
0/
0-
#360691
0.
#363405
0,
0$
#364349
10
#365000
1#
0%
#365517
1.
#368805
1,
1$
#370000
1"
0#
1%
#370507
1/
#370691
0.
#375000
1#
0%
#375517
1.
#380000
1!
0"
0#
1%
#380507
1-
#380681
0/
#380691
0.
#385000
1#
0%
#385517
1.
#390000
1"
0#
1%
#390507
1/
#390691
0.
#393880
00
#394493
10
#395000
1#
0%
#395517
1.
#399049
00
#400000
0!
0"
0#
1%
#400681
0/
0-
#400691
0.
#403405
0,
0$
#404349
10
#405000
1#
0%
#405517
1.
#408805
1,
1$
#410000
1"
0#
1%
#410507
1/
#410691
0.
#415000
1#
0%
#415517
1.
#420000
1!
0"
0#
1%
#420507
1-
#420681
0/
#420691
0.
#425000
1#
0%
#425517
1.
#430000
1"
0#
1%
#430507
1/
#430691
0.
#433880
00
#434493
10
#435000
1#
0%
#435517
1.
#439049
00
#440000
0!
0"
0#
1%
#440681
0/
0-
#440691
0.
#443405
0,
0$
#444349
10
#445000
1#
0%
#445517
1.
#448805
1,
1$
#450000
1"
0#
1%
#450507
1/
#450691
0.
#455000
1#
0%
#455517
1.
#460000
1!
0"
0#
1%
#460507
1-
#460681
0/
#460691
0.
#465000
1#
0%
#465517
1.
#470000
1"
0#
1%
#470507
1/
#470691
0.
#473880
00
#474493
10
#475000
1#
0%
#475517
1.
#479049
00
#480000
0!
0"
0#
1%
#480681
0/
0-
#480691
0.
#483405
0,
0$
#484349
10
#485000
1#
0%
#485517
1.
#488805
1,
1$
#490000
1"
0#
1%
#490507
1/
#490691
0.
#495000
1#
0%
#495517
1.
#500000
1!
0"
0#
1%
#500507
1-
#500681
0/
#500691
0.
#505000
1#
0%
#505517
1.
#510000
1"
0#
1%
#510507
1/
#510691
0.
#513880
00
#514493
10
#515000
1#
0%
#515517
1.
#519049
00
#520000
0!
0"
0#
1%
#520681
0/
0-
#520691
0.
#523405
0,
0$
#524349
10
#525000
1#
0%
#525517
1.
#528805
1,
1$
#530000
1"
0#
1%
#530507
1/
#530691
0.
#535000
1#
0%
#535517
1.
#540000
1!
0"
0#
1%
#540507
1-
#540681
0/
#540691
0.
#545000
1#
0%
#545517
1.
#550000
1"
0#
1%
#550507
1/
#550691
0.
#553880
00
#554493
10
#555000
1#
0%
#555517
1.
#559049
00
#560000
0!
0"
0#
1%
#560681
0/
0-
#560691
0.
#563405
0,
0$
#564349
10
#565000
1#
0%
#565517
1.
#568805
1,
1$
#570000
1"
0#
1%
#570507
1/
#570691
0.
#575000
1#
0%
#575517
1.
#580000
1!
0"
0#
1%
#580507
1-
#580681
0/
#580691
0.
#585000
1#
0%
#585517
1.
#590000
1"
0#
1%
#590507
1/
#590691
0.
#593880
00
#594493
10
#595000
1#
0%
#595517
1.
#599049
00
#600000
0!
0"
0#
1%
#600681
0/
0-
#600691
0.
#603405
0,
0$
#604349
10
#605000
1#
0%
#605517
1.
#608805
1,
1$
#610000
1"
0#
1%
#610507
1/
#610691
0.
#615000
1#
0%
#615517
1.
#620000
1!
0"
0#
1%
#620507
1-
#620681
0/
#620691
0.
#625000
1#
0%
#625517
1.
#630000
1"
0#
1%
#630507
1/
#630691
0.
#633880
00
#634493
10
#635000
1#
0%
#635517
1.
#639049
00
#640000
0!
0"
0#
1%
#640681
0/
0-
#640691
0.
#643405
0,
0$
#644349
10
#645000
1#
0%
#645517
1.
#648805
1,
1$
#650000
1"
0#
1%
#650507
1/
#650691
0.
#655000
1#
0%
#655517
1.
#660000
1!
0"
0#
1%
#660507
1-
#660681
0/
#660691
0.
#665000
1#
0%
#665517
1.
#670000
1"
0#
1%
#670507
1/
#670691
0.
#673880
00
#674493
10
#675000
1#
0%
#675517
1.
#679049
00
#680000
0!
0"
0#
1%
#680681
0/
0-
#680691
0.
#683405
0,
0$
#684349
10
#685000
1#
0%
#685517
1.
#688805
1,
1$
#690000
1"
0#
1%
#690507
1/
#690691
0.
#695000
1#
0%
#695517
1.
#700000
1!
0"
0#
1%
#700507
1-
#700681
0/
#700691
0.
#705000
1#
0%
#705517
1.
#710000
1"
0#
1%
#710507
1/
#710691
0.
#713880
00
#714493
10
#715000
1#
0%
#715517
1.
#719049
00
#720000
0!
0"
0#
1%
#720681
0/
0-
#720691
0.
#723405
0,
0$
#724349
10
#725000
1#
0%
#725517
1.
#728805
1,
1$
#730000
1"
0#
1%
#730507
1/
#730691
0.
#735000
1#
0%
#735517
1.
#740000
1!
0"
0#
1%
#740507
1-
#740681
0/
#740691
0.
#745000
1#
0%
#745517
1.
#750000
1"
0#
1%
#750507
1/
#750691
0.
#753880
00
#754493
10
#755000
1#
0%
#755517
1.
#759049
00
#760000
0!
0"
0#
1%
#760681
0/
0-
#760691
0.
#763405
0,
0$
#764349
10
#765000
1#
0%
#765517
1.
#768805
1,
1$
#770000
1"
0#
1%
#770507
1/
#770691
0.
#775000
1#
0%
#775517
1.
#780000
1!
0"
0#
1%
#780507
1-
#780681
0/
#780691
0.
#785000
1#
0%
#785517
1.
#790000
1"
0#
1%
#790507
1/
#790691
0.
#793880
00
#794493
10
#795000
1#
0%
#795517
1.
#799049
00
#800000
0!
0"
0#
1%
#800681
0/
0-
#800691
0.
#803405
0,
0$
#804349
10
#805000
1#
0%
#805517
1.
#808805
1,
1$
#810000
1"
0#
1%
#810507
1/
#810691
0.
#815000
1#
0%
#815517
1.
#820000
1!
0"
0#
1%
#820507
1-
#820681
0/
#820691
0.
#825000
1#
0%
#825517
1.
#830000
1"
0#
1%
#830507
1/
#830691
0.
#833880
00
#834493
10
#835000
1#
0%
#835517
1.
#839049
00
#840000
0!
0"
0#
1%
#840681
0/
0-
#840691
0.
#843405
0,
0$
#844349
10
#845000
1#
0%
#845517
1.
#848805
1,
1$
#850000
1"
0#
1%
#850507
1/
#850691
0.
#855000
1#
0%
#855517
1.
#860000
1!
0"
0#
1%
#860507
1-
#860681
0/
#860691
0.
#865000
1#
0%
#865517
1.
#870000
1"
0#
1%
#870507
1/
#870691
0.
#873880
00
#874493
10
#875000
1#
0%
#875517
1.
#879049
00
#880000
0!
0"
0#
1%
#880681
0/
0-
#880691
0.
#883405
0,
0$
#884349
10
#885000
1#
0%
#885517
1.
#888805
1,
1$
#890000
1"
0#
1%
#890507
1/
#890691
0.
#895000
1#
0%
#895517
1.
#900000
1!
0"
0#
1%
#900507
1-
#900681
0/
#900691
0.
#905000
1#
0%
#905517
1.
#910000
1"
0#
1%
#910507
1/
#910691
0.
#913880
00
#914493
10
#915000
1#
0%
#915517
1.
#919049
00
#920000
0!
0"
0#
1%
#920681
0/
0-
#920691
0.
#923405
0,
0$
#924349
10
#925000
1#
0%
#925517
1.
#928805
1,
1$
#930000
1"
0#
1%
#930507
1/
#930691
0.
#935000
1#
0%
#935517
1.
#940000
1!
0"
0#
1%
#940507
1-
#940681
0/
#940691
0.
#945000
1#
0%
#945517
1.
#950000
1"
0#
1%
#950507
1/
#950691
0.
#953880
00
#954493
10
#955000
1#
0%
#955517
1.
#959049
00
#960000
0!
0"
0#
1%
#960681
0/
0-
#960691
0.
#963405
0,
0$
#964349
10
#965000
1#
0%
#965517
1.
#968805
1,
1$
#970000
1"
0#
1%
#970507
1/
#970691
0.
#975000
1#
0%
#975517
1.
#980000
1!
0"
0#
1%
#980507
1-
#980681
0/
#980691
0.
#985000
1#
0%
#985517
1.
#990000
1"
0#
1%
#990507
1/
#990691
0.
#993880
00
#994493
10
#995000
1#
0%
#995517
1.
#999049
00
