trabalho_td/simulation/qsim/trabalho_td.msim.vcd
$comment
	File created using the following command:
		vcd file trabalho_td.msim.vcd -direction
$end
$date
	Sun Jan 18 17:36:09 2026
$end
$version
	ModelSim Version 10.1d
$end
$timescale
	1ps
$end
$scope module somador_completo_vlg_vec_tst $end
$var reg 1 ! a $end
$var reg 1 " b $end
$var reg 1 # c_in $end
$var wire 1 $ c_out $end
$var wire 1 % s $end
$var wire 1 & sampler $end
$scope module i1 $end
$var wire 1 ' gnd $end
$var wire 1 ( vcc $end
$var wire 1 ) unknown $end
$var tri1 1 * devclrn $end
$var tri1 1 + devpor $end
$var tri1 1 , devoe $end
$var wire 1 - s~output_o $end
$var wire 1 . c_out~output_o $end
$var wire 1 / a~input_o $end
$var wire 1 0 b~input_o $end
$var wire 1 1 c_in~input_o $end
$var wire 1 2 s~0_combout $end
$var wire 1 3 c_out~0_combout $end
$upscope $end
$upscope $end
$enddefinitions $end
#0
$dumpvars
0!
0"
0#
x$
x%
x&
0'
1(
x)
1*
1+
1,
x-
x.
0/
00
01
x2
x3
$end
#3634
02
#3752
03
#5000
1!
0&
#5517
1/
#6700
0-
0%
#6750
0.
0$
#8972
12
#10000
1"
0!
1&
#10507
10
#10691
0/
#12162
1-
1%
#13974
13
#14010
02
#14401
03
#14406
12
#15000
1!
0&
#15517
1/
#18940
13
#18977
02
#20000
1#
0"
0!
1&
#20517
11
#20681
00
#20691
0/
#22043
0-
0%
#22055
1.
1$
#23906
12
#24433
03
#25000
1!
0&
#25517
1/
#27096
1-
1%
#27431
0.
0$
#28940
13
#28977
02
#30000
1"
0!
1&
#30507
10
#30691
0/
#32043
0-
0%
#32055
1.
1$
#34011
12
#34411
02
#35000
1!
0&
#35517
1/
#38972
12
#40000
0#
0"
0!
1&
#40681
00
#40691
0/
01
#42162
1-
1%
#44325
02
#44433
03
#45000
1!
0&
#45517
1/
#47391
0-
0%
#47431
0.
0$
#48972
12
#50000
1"
0!
1&
#50507
10
#50691
0/
#52162
1-
1%
#53974
13
#54010
02
#54401
03
#54406
12
#55000
1!
0&
#55517
1/
#58940
13
#58977
02
#60000
1#
0"
0!
1&
#60517
11
#60681
00
#60691
0/
#62043
0-
0%
#62055
1.
1$
#63906
12
#64433
03
#65000
1!
0&
#65517
1/
#67096
1-
1%
#67431
0.
0$
#68940
13
#68977
02
#70000
1"
0!
1&
#70507
10
#70691
0/
#72043
0-
0%
#72055
1.
1$
#74011
12
#74411
02
#75000
1!
0&
#75517
1/
#78972
12
#80000
0#
0"
0!
1&
#80681
00
#80691
0/
01
#82162
1-
1%
#84325
02
#84433
03
#85000
1!
0&
#85517
1/
#87391
0-
0%
#87431
0.
0$
#88972
12
#90000
1"
0!
1&
#90507
10
#90691
0/
#92162
1-
1%
#93974
13
#94010
02
#94401
03
#94406
12
#95000
1!
0&
#95517
1/
#98940
13
#98977
02
#100000
1#
0"
0!
1&
#100517
11
#100681
00
#100691
0/
#102043
0-
0%
#102055
1.
1$
#103906
12
#104433
03
#105000
1!
0&
#105517
1/
#107096
1-
1%
#107431
0.
0$
#108940
13
#108977
02
#110000
1"
0!
1&
#110507
10
#110691
0/
#112043
0-
0%
#112055
1.
1$
#114011
12
#114411
02
#115000
1!
0&
#115517
1/
#118972
12
#120000
0#
0"
0!
1&
#120681
00
#120691
0/
01
#122162
1-
1%
#124325
02
#124433
03
#125000
1!
0&
#125517
1/
#127391
0-
0%
#127431
0.
0$
#128972
12
#130000
1"
0!
1&
#130507
10
#130691
0/
#132162
1-
1%
#133974
13
#134010
02
#134401
03
#134406
12
#135000
1!
0&
#135517
1/
#138940
13
#138977
02
#140000
1#
0"
0!
1&
#140517
11
#140681
00
#140691
0/
#142043
0-
0%
#142055
1.
1$
#143906
12
#144433
03
#145000
1!
0&
#145517
1/
#147096
1-
1%
#147431
0.
0$
#148940
13
#148977
02
#150000
1"
0!
1&
#150507
10
#150691
0/
#152043
0-
0%
#152055
1.
1$
#154011
12
#154411
02
#155000
1!
0&
#155517
1/
#158972
12
#160000
0#
0"
0!
1&
#160681
00
#160691
0/
01
#162162
1-
1%
#164325
02
#164433
03
#165000
1!
0&
#165517
1/
#167391
0-
0%
#167431
0.
0$
#168972
12
#170000
1"
0!
1&
#170507
10
#170691
0/
#172162
1-
1%
#173974
13
#174010
02
#174401
03
#174406
12
#175000
1!
0&
#175517
1/
#178940
13
#178977
02
#180000
1#
0"
0!
1&
#180517
11
#180681
00
#180691
0/
#182043
0-
0%
#182055
1.
1$
#183906
12
#184433
03
#185000
1!
0&
#185517
1/
#187096
1-
1%
#187431
0.
0$
#188940
13
#188977
02
#190000
1"
0!
1&
#190507
10
#190691
0/
#192043
0-
0%
#192055
1.
1$
#194011
12
#194411
02
#195000
1!
0&
#195517
1/
#198972
12
#200000
0#
0"
0!
1&
#200681
00
#200691
0/
01
#202162
1-
1%
#204325
02
#204433
03
#205000
1!
0&
#205517
1/
#207391
0-
0%
#207431
0.
0$
#208972
12
#210000
1"
0!
1&
#210507
10
#210691
0/
#212162
1-
1%
#213974
13
#214010
02
#214401
03
#214406
12
#215000
1!
0&
#215517
1/
#218940
13
#218977
02
#220000
1#
0"
0!
1&
#220517
11
#220681
00
#220691
0/
#222043
0-
0%
#222055
1.
1$
#223906
12
#224433
03
#225000
1!
0&
#225517
1/
#227096
1-
1%
#227431
0.
0$
#228940
13
#228977
02
#230000
1"
0!
1&
#230507
10
#230691
0/
#232043
0-
0%
#232055
1.
1$
#234011
12
#234411
02
#235000
1!
0&
#235517
1/
#238972
12
#240000
0#
0"
0!
1&
#240681
00
#240691
0/
01
#242162
1-
1%
#244325
02
#244433
03
#245000
1!
0&
#245517
1/
#247391
0-
0%
#247431
0.
0$
#248972
12
#250000
1"
0!
1&
#250507
10
#250691
0/
#252162
1-
1%
#253974
13
#254010
02
#254401
03
#254406
12
#255000
1!
0&
#255517
1/
#258940
13
#258977
02
#260000
1#
0"
0!
1&
#260517
11
#260681
00
#260691
0/
#262043
0-
0%
#262055
1.
1$
#263906
12
#264433
03
#265000
1!
0&
#265517
1/
#267096
1-
1%
#267431
0.
0$
#268940
13
#268977
02
#270000
1"
0!
1&
#270507
10
#270691
0/
#272043
0-
0%
#272055
1.
1$
#274011
12
#274411
02
#275000
1!
0&
#275517
1/
#278972
12
#280000
0#
0"
0!
1&
#280681
00
#280691
0/
01
#282162
1-
1%
#284325
02
#284433
03
#285000
1!
0&
#285517
1/
#287391
0-
0%
#287431
0.
0$
#288972
12
#290000
1"
0!
1&
#290507
10
#290691
0/
#292162
1-
1%
#293974
13
#294010
02
#294401
03
#294406
12
#295000
1!
0&
#295517
1/
#298940
13
#298977
02
#300000
1#
0"
0!
1&
#300517
11
#300681
00
#300691
0/
#302043
0-
0%
#302055
1.
1$
#303906
12
#304433
03
#305000
1!
0&
#305517
1/
#307096
1-
1%
#307431
0.
0$
#308940
13
#308977
02
#310000
1"
0!
1&
#310507
10
#310691
0/
#312043
0-
0%
#312055
1.
1$
#314011
12
#314411
02
#315000
1!
0&
#315517
1/
#318972
12
#320000
0#
0"
0!
1&
#320681
00
#320691
0/
01
#322162
1-
1%
#324325
02
#324433
03
#325000
1!
0&
#325517
1/
#327391
0-
0%
#327431
0.
0$
#328972
12
#330000
1"
0!
1&
#330507
10
#330691
0/
#332162
1-
1%
#333974
13
#334010
02
#334401
03
#334406
12
#335000
1!
0&
#335517
1/
#338940
13
#338977
02
#340000
1#
0"
0!
1&
#340517
11
#340681
00
#340691
0/
#342043
0-
0%
#342055
1.
1$
#343906
12
#344433
03
#345000
1!
0&
#345517
1/
#347096
1-
1%
#347431
0.
0$
#348940
13
#348977
02
#350000
1"
0!
1&
#350507
10
#350691
0/
#352043
0-
0%
#352055
1.
1$
#354011
12
#354411
02
#355000
1!
0&
#355517
1/
#358972
12
#360000
0#
0"
0!
1&
#360681
00
#360691
0/
01
#362162
1-
1%
#364325
02
#364433
03
#365000
1!
0&
#365517
1/
#367391
0-
0%
#367431
0.
0$
#368972
12
#370000
1"
0!
1&
#370507
10
#370691
0/
#372162
1-
1%
#373974
13
#374010
02
#374401
03
#374406
12
#375000
1!
0&
#375517
1/
#378940
13
#378977
02
#380000
1#
0"
0!
1&
#380517
11
#380681
00
#380691
0/
#382043
0-
0%
#382055
1.
1$
#383906
12
#384433
03
#385000
1!
0&
#385517
1/
#387096
1-
1%
#387431
0.
0$
#388940
13
#388977
02
#390000
1"
0!
1&
#390507
10
#390691
0/
#392043
0-
0%
#392055
1.
1$
#394011
12
#394411
02
#395000
1!
0&
#395517
1/
#398972
12
#400000
0#
0"
0!
1&
#400681
00
#400691
0/
01
#402162
1-
1%
#404325
02
#404433
03
#405000
1!
0&
#405517
1/
#407391
0-
0%
#407431
0.
0$
#408972
12
#410000
1"
0!
1&
#410507
10
#410691
0/
#412162
1-
1%
#413974
13
#414010
02
#414401
03
#414406
12
#415000
1!
0&
#415517
1/
#418940
13
#418977
02
#420000
1#
0"
0!
1&
#420517
11
#420681
00
#420691
0/
#422043
0-
0%
#422055
1.
1$
#423906
12
#424433
03
#425000
1!
0&
#425517
1/
#427096
1-
1%
#427431
0.
0$
#428940
13
#428977
02
#430000
1"
0!
1&
#430507
10
#430691
0/
#432043
0-
0%
#432055
1.
1$
#434011
12
#434411
02
#435000
1!
0&
#435517
1/
#438972
12
#440000
0#
0"
0!
1&
#440681
00
#440691
0/
01
#442162
1-
1%
#444325
02
#444433
03
#445000
1!
0&
#445517
1/
#447391
0-
0%
#447431
0.
0$
#448972
12
#450000
1"
0!
1&
#450507
10
#450691
0/
#452162
1-
1%
#453974
13
#454010
02
#454401
03
#454406
12
#455000
1!
0&
#455517
1/
#458940
13
#458977
02
#460000
1#
0"
0!
1&
#460517
11
#460681
00
#460691
0/
#462043
0-
0%
#462055
1.
1$
#463906
12
#464433
03
#465000
1!
0&
#465517
1/
#467096
1-
1%
#467431
0.
0$
#468940
13
#468977
02
#470000
1"
0!
1&
#470507
10
#470691
0/
#472043
0-
0%
#472055
1.
1$
#474011
12
#474411
02
#475000
1!
0&
#475517
1/
#478972
12
#480000
0#
0"
0!
1&
#480681
00
#480691
0/
01
#482162
1-
1%
#484325
02
#484433
03
#485000
1!
0&
#485517
1/
#487391
0-
0%
#487431
0.
0$
#488972
12
#490000
1"
0!
1&
#490507
10
#490691
0/
#492162
1-
1%
#493974
13
#494010
02
#494401
03
#494406
12
#495000
1!
0&
#495517
1/
#498940
13
#498977
02
#500000
1#
0"
0!
1&
#500517
11
#500681
00
#500691
0/
#502043
0-
0%
#502055
1.
1$
#503906
12
#504433
03
#505000
1!
0&
#505517
1/
#507096
1-
1%
#507431
0.
0$
#508940
13
#508977
02
#510000
1"
0!
1&
#510507
10
#510691
0/
#512043
0-
0%
#512055
1.
1$
#514011
12
#514411
02
#515000
1!
0&
#515517
1/
#518972
12
#520000
0#
0"
0!
1&
#520681
00
#520691
0/
01
#522162
1-
1%
#524325
02
#524433
03
#525000
1!
0&
#525517
1/
#527391
0-
0%
#527431
0.
0$
#528972
12
#530000
1"
0!
1&
#530507
10
#530691
0/
#532162
1-
1%
#533974
13
#534010
02
#534401
03
#534406
12
#535000
1!
0&
#535517
1/
#538940
13
#538977
02
#540000
1#
0"
0!
1&
#540517
11
#540681
00
#540691
0/
#542043
0-
0%
#542055
1.
1$
#543906
12
#544433
03
#545000
1!
0&
#545517
1/
#547096
1-
1%
#547431
0.
0$
#548940
13
#548977
02
#550000
1"
0!
1&
#550507
10
#550691
0/
#552043
0-
0%
#552055
1.
1$
#554011
12
#554411
02
#555000
1!
0&
#555517
1/
#558972
12
#560000
0#
0"
0!
1&
#560681
00
#560691
0/
01
#562162
1-
1%
#564325
02
#564433
03
#565000
1!
0&
#565517
1/
#567391
0-
0%
#567431
0.
0$
#568972
12
#570000
1"
0!
1&
#570507
10
#570691
0/
#572162
1-
1%
#573974
13
#574010
02
#574401
03
#574406
12
#575000
1!
0&
#575517
1/
#578940
13
#578977
02
#580000
1#
0"
0!
1&
#580517
11
#580681
00
#580691
0/
#582043
0-
0%
#582055
1.
1$
#583906
12
#584433
03
#585000
1!
0&
#585517
1/
#587096
1-
1%
#587431
0.
0$
#588940
13
#588977
02
#590000
1"
0!
1&
#590507
10
#590691
0/
#592043
0-
0%
#592055
1.
1$
#594011
12
#594411
02
#595000
1!
0&
#595517
1/
#598972
12
#600000
0#
0"
0!
1&
#600681
00
#600691
0/
01
#602162
1-
1%
#604325
02
#604433
03
#605000
1!
0&
#605517
1/
#607391
0-
0%
#607431
0.
0$
#608972
12
#610000
1"
0!
1&
#610507
10
#610691
0/
#612162
1-
1%
#613974
13
#614010
02
#614401
03
#614406
12
#615000
1!
0&
#615517
1/
#618940
13
#618977
02
#620000
1#
0"
0!
1&
#620517
11
#620681
00
#620691
0/
#622043
0-
0%
#622055
1.
1$
#623906
12
#624433
03
#625000
1!
0&
#625517
1/
#627096
1-
1%
#627431
0.
0$
#628940
13
#628977
02
#630000
1"
0!
1&
#630507
10
#630691
0/
#632043
0-
0%
#632055
1.
1$
#634011
12
#634411
02
#635000
1!
0&
#635517
1/
#638972
12
#640000
0#
0"
0!
1&
#640681
00
#640691
0/
01
#642162
1-
1%
#644325
02
#644433
03
#645000
1!
0&
#645517
1/
#647391
0-
0%
#647431
0.
0$
#648972
12
#650000
1"
0!
1&
#650507
10
#650691
0/
#652162
1-
1%
#653974
13
#654010
02
#654401
03
#654406
12
#655000
1!
0&
#655517
1/
#658940
13
#658977
02
#660000
1#
0"
0!
1&
#660517
11
#660681
00
#660691
0/
#662043
0-
0%
#662055
1.
1$
#663906
12
#664433
03
#665000
1!
0&
#665517
1/
#667096
1-
1%
#667431
0.
0$
#668940
13
#668977
02
#670000
1"
0!
1&
#670507
10
#670691
0/
#672043
0-
0%
#672055
1.
1$
#674011
12
#674411
02
#675000
1!
0&
#675517
1/
#678972
12
#680000
0#
0"
0!
1&
#680681
00
#680691
0/
01
#682162
1-
1%
#684325
02
#684433
03
#685000
1!
0&
#685517
1/
#687391
0-
0%
#687431
0.
0$
#688972
12
#690000
1"
0!
1&
#690507
10
#690691
0/
#692162
1-
1%
#693974
13
#694010
02
#694401
03
#694406
12
#695000
1!
0&
#695517
1/
#698940
13
#698977
02
#700000
1#
0"
0!
1&
#700517
11
#700681
00
#700691
0/
#702043
0-
0%
#702055
1.
1$
#703906
12
#704433
03
#705000
1!
0&
#705517
1/
#707096
1-
1%
#707431
0.
0$
#708940
13
#708977
02
#710000
1"
0!
1&
#710507
10
#710691
0/
#712043
0-
0%
#712055
1.
1$
#714011
12
#714411
02
#715000
1!
0&
#715517
1/
#718972
12
#720000
0#
0"
0!
1&
#720681
00
#720691
0/
01
#722162
1-
1%
#724325
02
#724433
03
#725000
1!
0&
#725517
1/
#727391
0-
0%
#727431
0.
0$
#728972
12
#730000
1"
0!
1&
#730507
10
#730691
0/
#732162
1-
1%
#733974
13
#734010
02
#734401
03
#734406
12
#735000
1!
0&
#735517
1/
#738940
13
#738977
02
#740000
1#
0"
0!
1&
#740517
11
#740681
00
#740691
0/
#742043
0-
0%
#742055
1.
1$
#743906
12
#744433
03
#745000
1!
0&
#745517
1/
#747096
1-
1%
#747431
0.
0$
#748940
13
#748977
02
#750000
1"
0!
1&
#750507
10
#750691
0/
#752043
0-
0%
#752055
1.
1$
#754011
12
#754411
02
#755000
1!
0&
#755517
1/
#758972
12
#760000
0#
0"
0!
1&
#760681
00
#760691
0/
01
#762162
1-
1%
#764325
02
#764433
03
#765000
1!
0&
#765517
1/
#767391
0-
0%
#767431
0.
0$
#768972
12
#770000
1"
0!
1&
#770507
10
#770691
0/
#772162
1-
1%
#773974
13
#774010
02
#774401
03
#774406
12
#775000
1!
0&
#775517
1/
#778940
13
#778977
02
#780000
1#
0"
0!
1&
#780517
11
#780681
00
#780691
0/
#782043
0-
0%
#782055
1.
1$
#783906
12
#784433
03
#785000
1!
0&
#785517
1/
#787096
1-
1%
#787431
0.
0$
#788940
13
#788977
02
#790000
1"
0!
1&
#790507
10
#790691
0/
#792043
0-
0%
#792055
1.
1$
#794011
12
#794411
02
#795000
1!
0&
#795517
1/
#798972
12
#800000
0#
0"
0!
1&
#800681
00
#800691
0/
01
#802162
1-
1%
#804325
02
#804433
03
#805000
1!
0&
#805517
1/
#807391
0-
0%
#807431
0.
0$
#808972
12
#810000
1"
0!
1&
#810507
10
#810691
0/
#812162
1-
1%
#813974
13
#814010
02
#814401
03
#814406
12
#815000
1!
0&
#815517
1/
#818940
13
#818977
02
#820000
1#
0"
0!
1&
#820517
11
#820681
00
#820691
0/
#822043
0-
0%
#822055
1.
1$
#823906
12
#824433
03
#825000
1!
0&
#825517
1/
#827096
1-
1%
#827431
0.
0$
#828940
13
#828977
02
#830000
1"
0!
1&
#830507
10
#830691
0/
#832043
0-
0%
#832055
1.
1$
#834011
12
#834411
02
#835000
1!
0&
#835517
1/
#838972
12
#840000
0#
0"
0!
1&
#840681
00
#840691
0/
01
#842162
1-
1%
#844325
02
#844433
03
#845000
1!
0&
#845517
1/
#847391
0-
0%
#847431
0.
0$
#848972
12
#850000
1"
0!
1&
#850507
10
#850691
0/
#852162
1-
1%
#853974
13
#854010
02
#854401
03
#854406
12
#855000
1!
0&
#855517
1/
#858940
13
#858977
02
#860000
1#
0"
0!
1&
#860517
11
#860681
00
#860691
0/
#862043
0-
0%
#862055
1.
1$
#863906
12
#864433
03
#865000
1!
0&
#865517
1/
#867096
1-
1%
#867431
0.
0$
#868940
13
#868977
02
#870000
1"
0!
1&
#870507
10
#870691
0/
#872043
0-
0%
#872055
1.
1$
#874011
12
#874411
02
#875000
1!
0&
#875517
1/
#878972
12
#880000
0#
0"
0!
1&
#880681
00
#880691
0/
01
#882162
1-
1%
#884325
02
#884433
03
#885000
1!
0&
#885517
1/
#887391
0-
0%
#887431
0.
0$
#888972
12
#890000
1"
0!
1&
#890507
10
#890691
0/
#892162
1-
1%
#893974
13
#894010
02
#894401
03
#894406
12
#895000
1!
0&
#895517
1/
#898940
13
#898977
02
#900000
1#
0"
0!
1&
#900517
11
#900681
00
#900691
0/
#902043
0-
0%
#902055
1.
1$
#903906
12
#904433
03
#905000
1!
0&
#905517
1/
#907096
1-
1%
#907431
0.
0$
#908940
13
#908977
02
#910000
1"
0!
1&
#910507
10
#910691
0/
#912043
0-
0%
#912055
1.
1$
#914011
12
#914411
02
#915000
1!
0&
#915517
1/
#918972
12
#920000
0#
0"
0!
1&
#920681
00
#920691
0/
01
#922162
1-
1%
#924325
02
#924433
03
#925000
1!
0&
#925517
1/
#927391
0-
0%
#927431
0.
0$
#928972
12
#930000
1"
0!
1&
#930507
10
#930691
0/
#932162
1-
1%
#933974
13
#934010
02
#934401
03
#934406
12
#935000
1!
0&
#935517
1/
#938940
13
#938977
02
#940000
1#
0"
0!
1&
#940517
11
#940681
00
#940691
0/
#942043
0-
0%
#942055
1.
1$
#943906
12
#944433
03
#945000
1!
0&
#945517
1/
#947096
1-
1%
#947431
0.
0$
#948940
13
#948977
02
#950000
1"
0!
1&
#950507
10
#950691
0/
#952043
0-
0%
#952055
1.
1$
#954011
12
#954411
02
#955000
1!
0&
#955517
1/
#958972
12
#960000
0#
0"
0!
1&
#960681
00
#960691
0/
01
#962162
1-
1%
#964325
02
#964433
03
#965000
1!
0&
#965517
1/
#967391
0-
0%
#967431
0.
0$
#968972
12
#970000
1"
0!
1&
#970507
10
#970691
0/
#972162
1-
1%
#973974
13
#974010
02
#974401
03
#974406
12
#975000
1!
0&
#975517
1/
#978940
13
#978977
02
#980000
1#
0"
0!
1&
#980517
11
#980681
00
#980691
0/
#982043
0-
0%
#982055
1.
1$
#983906
12
#984433
03
#985000
1!
0&
#985517
1/
#987096
1-
1%
#987431
0.
0$
#988940
13
#988977
02
#990000
1"
0!
1&
#990507
10
#990691
0/
#992043
0-
0%
#992055
1.
1$
#994011
12
#994411
02
#995000
1!
0&
#995517
1/
#998972
12
