trabalho_td/simulation/qsim/trabalho_td.msim.vcd
$comment
	File created using the following command:
		vcd file trabalho_td.msim.vcd -direction
$end
$date
	Tue Jan 20 15:41:53 2026
$end
$version
	ModelSim Version 10.1d
$end
$timescale
	1ps
$end
$scope module sr_b_vlg_vec_tst $end
$var reg 4 ! b [3:0] $end
$var reg 1 " desloca $end
$var reg 1 # entrada_serial $end
$var wire 1 $ s [13] $end
$var wire 1 % s [12] $end
$var wire 1 & s [11] $end
$var wire 1 ' s [10] $end
$var wire 1 ( s [9] $end
$var wire 1 ) s [8] $end
$var wire 1 * s [7] $end
$var wire 1 + s [6] $end
$var wire 1 , s [5] $end
$var wire 1 - s [4] $end
$var wire 1 . s [3] $end
$var wire 1 / s [2] $end
$var wire 1 0 s [1] $end
$var wire 1 1 s [0] $end
$var wire 1 2 sampler $end
$scope module i1 $end
$var wire 1 3 gnd $end
$var wire 1 4 vcc $end
$var wire 1 5 unknown $end
$var tri1 1 6 devclrn $end
$var tri1 1 7 devpor $end
$var tri1 1 8 devoe $end
$var wire 1 9 s[0]~output_o $end
$var wire 1 : s[1]~output_o $end
$var wire 1 ; s[2]~output_o $end
$var wire 1 < s[3]~output_o $end
$var wire 1 = s[4]~output_o $end
$var wire 1 > s[5]~output_o $end
$var wire 1 ? s[6]~output_o $end
$var wire 1 @ s[7]~output_o $end
$var wire 1 A s[8]~output_o $end
$var wire 1 B s[9]~output_o $end
$var wire 1 C s[10]~output_o $end
$var wire 1 D s[11]~output_o $end
$var wire 1 E s[12]~output_o $end
$var wire 1 F s[13]~output_o $end
$var wire 1 G desloca~input_o $end
$var wire 1 H b[0]~input_o $end
$var wire 1 I b[1]~input_o $end
$var wire 1 J mux0|s~0_combout $end
$var wire 1 K b[2]~input_o $end
$var wire 1 L mux1|s~0_combout $end
$var wire 1 M b[3]~input_o $end
$var wire 1 N mux2|s~0_combout $end
$var wire 1 O entrada_serial~input_o $end
$var wire 1 P mux3|s~0_combout $end
$upscope $end
$upscope $end
$enddefinitions $end
#0
$dumpvars
b0 !
0"
0#
x1
x0
x/
x.
0-
0,
0+
0*
0)
0(
0'
0&
0%
0$
x2
03
14
x5
16
17
18
x9
x:
x;
x<
0=
0>
0?
0@
0A
0B
0C
0D
0E
0F
0G
0H
0I
xJ
0K
xL
0M
xN
0O
xP
$end
#3877
0J
#3882
0N
#4174
0L
#4282
0P
#5000
b1000 !
02
#5517
1M
#6879
0;
0/
#6943
09
01
#7134
0:
00
#8250
0<
0.
#8955
1P
#10000
b1100 !
b100 !
12
#10517
1K
#10691
0M
#12996
1<
1.
#14137
1N
#14401
0P
#15000
b1100 !
02
#15517
1M
#17250
1;
1/
#18369
0<
0.
#18955
1P
#20000
b1110 !
b1010 !
b10 !
12
#20507
1I
#20691
0M
0K
#22996
1<
1.
#24401
0P
#24409
1L
#24573
0N
#25000
b1010 !
02
#25517
1M
#27491
1:
10
#27570
0;
0/
#28369
0<
0.
#28955
1P
#30000
b1110 !
b110 !
12
#30517
1K
#30691
0M
#32996
1<
1.
#34137
1N
#34401
0P
#35000
b1110 !
02
#35517
1M
#37250
1;
1/
#38369
0<
0.
#38955
1P
#40000
b1111 !
b1101 !
b1001 !
b1 !
12
#40517
1H
#40681
0I
#40691
0M
0K
#42996
1<
1.
#44066
1J
#44401
0P
#44573
0N
#44855
0L
#45000
b1001 !
02
#45517
1M
#47256
19
11
#47570
0;
0/
#47815
0:
00
#48369
0<
0.
#48955
1P
#50000
b1101 !
b101 !
12
#50517
1K
#50691
0M
#52996
1<
1.
#54137
1N
#54401
0P
#55000
b1101 !
02
#55517
1M
#57250
1;
1/
#58369
0<
0.
#58955
1P
#60000
b1111 !
b1011 !
b11 !
12
#60507
1I
#60691
0M
0K
#62996
1<
1.
#64401
0P
#64409
1L
#64573
0N
#65000
b1011 !
02
#65517
1M
#67491
1:
10
#67570
0;
0/
#68369
0<
0.
#68955
1P
#70000
b1111 !
b111 !
12
#70517
1K
#70691
0M
#72996
1<
1.
#74137
1N
#74401
0P
#75000
b1111 !
02
#75517
1M
#77250
1;
1/
#78369
0<
0.
#78955
1P
#80000
1"
b1110 !
b1100 !
b1000 !
b0 !
12
#80517
1G
#80681
0I
#80691
0M
0K
0H
#82996
1<
1.
#84370
0L
#84401
0P
#84558
0J
#84573
0N
#85000
b1000 !
02
#85517
1M
#87330
0:
00
#87570
0;
0/
#87624
09
01
#88369
0<
0.
#88905
1N
#90000
b1100 !
b100 !
12
#90517
1K
#90691
0M
#92018
1;
1/
#94087
1L
#94342
0N
#95000
b1100 !
02
#95517
1M
#97169
1:
10
#97339
0;
0/
#98905
1N
#100000
b1110 !
b1010 !
b10 !
12
#100507
1I
#100691
0M
0K
#102018
1;
1/
#104140
1J
#104342
0N
#104514
0L
#105000
b1010 !
02
#105517
1M
#107330
19
11
#107339
0;
0/
#107474
0:
00
#108905
1N
#110000
b1110 !
b110 !
12
#110517
1K
#110691
0M
#112018
1;
1/
#114087
1L
#114342
0N
#115000
b1110 !
02
#115517
1M
#117169
1:
10
#117339
0;
0/
#118905
1N
#120000
b1111 !
b1101 !
b1001 !
b1 !
12
#120517
1H
#120681
0I
#120691
0M
0K
#122018
1;
1/
#124342
0N
#124514
0L
#124558
0J
#125000
b1001 !
02
#125517
1M
#127339
0;
0/
#127474
0:
00
#127624
09
01
#128905
1N
#130000
b1101 !
b101 !
12
#130517
1K
#130691
0M
#132018
1;
1/
#134087
1L
#134342
0N
#135000
b1101 !
02
#135517
1M
#137169
1:
10
#137339
0;
0/
#138905
1N
#140000
b1111 !
b1011 !
b11 !
12
#140507
1I
#140691
0M
0K
#142018
1;
1/
#144140
1J
#144342
0N
#144514
0L
#145000
b1011 !
02
#145517
1M
#147330
19
11
#147339
0;
0/
#147474
0:
00
#148905
1N
#150000
b1111 !
b111 !
12
#150517
1K
#150691
0M
#152018
1;
1/
#154087
1L
#154342
0N
#155000
b1111 !
02
#155517
1M
#157169
1:
10
#157339
0;
0/
#158905
1N
#160000
1#
0"
b1110 !
b1100 !
b1000 !
b0 !
12
#160507
1O
#160681
0I
#160691
0M
0K
0H
0G
#162018
1;
1/
#164342
0N
#164441
1P
#164514
0L
#164558
0J
#164888
0P
#165000
b1000 !
02
#165517
1M
#167339
0;
0/
#167474
0:
00
#167624
09
01
#168955
1P
#170000
b1100 !
b100 !
12
#170517
1K
#170691
0M
#172996
1<
1.
#174137
1N
#174401
0P
#175000
b1100 !
02
#175517
1M
#177250
1;
1/
#178369
0<
0.
#178955
1P
#180000
b1110 !
b1010 !
b10 !
12
#180507
1I
#180691
0M
0K
#182996
1<
1.
#184401
0P
#184409
1L
#184573
0N
#185000
b1010 !
02
#185517
1M
#187491
1:
10
#187570
0;
0/
#188369
0<
0.
#188955
1P
#190000
b1110 !
b110 !
12
#190517
1K
#190691
0M
#192996
1<
1.
#194137
1N
#194401
0P
#195000
b1110 !
02
#195517
1M
#197250
1;
1/
#198369
0<
0.
#198955
1P
#200000
b1111 !
b1101 !
b1001 !
b1 !
12
#200517
1H
#200681
0I
#200691
0M
0K
#202996
1<
1.
#204066
1J
#204401
0P
#204573
0N
#204855
0L
#205000
b1001 !
02
#205517
1M
#207256
19
11
#207570
0;
0/
#207815
0:
00
#208369
0<
0.
#208955
1P
#210000
b1101 !
b101 !
12
#210517
1K
#210691
0M
#212996
1<
1.
#214137
1N
#214401
0P
#215000
b1101 !
02
#215517
1M
#217250
1;
1/
#218369
0<
0.
#218955
1P
#220000
b1111 !
b1011 !
b11 !
12
#220507
1I
#220691
0M
0K
#222996
1<
1.
#224401
0P
#224409
1L
#224573
0N
#225000
b1011 !
02
#225517
1M
#227491
1:
10
#227570
0;
0/
#228369
0<
0.
#228955
1P
#230000
b1111 !
b111 !
12
#230517
1K
#230691
0M
#232996
1<
1.
#234137
1N
#234401
0P
#235000
b1111 !
02
#235517
1M
#237250
1;
1/
#238369
0<
0.
#238955
1P
#240000
1"
b1110 !
b1100 !
b1000 !
b0 !
12
#240517
1G
#240681
0I
#240691
0M
0K
0H
#242996
1<
1.
#244370
0L
#244558
0J
#244573
0N
#245000
b1000 !
02
#245517
1M
#247330
0:
00
#247570
0;
0/
#247624
09
01
#248905
1N
#250000
b1100 !
b100 !
12
#250517
1K
#250691
0M
#252018
1;
1/
#254087
1L
#254342
0N
#255000
b1100 !
02
#255517
1M
#257169
1:
10
#257339
0;
0/
#258905
1N
#260000
b1110 !
b1010 !
b10 !
12
#260507
1I
#260691
0M
0K
#262018
1;
1/
#264140
1J
#264342
0N
#264514
0L
#265000
b1010 !
02
#265517
1M
#267330
19
11
#267339
0;
0/
#267474
0:
00
#268905
1N
#270000
b1110 !
b110 !
12
#270517
1K
#270691
0M
#272018
1;
1/
#274087
1L
#274342
0N
#275000
b1110 !
02
#275517
1M
#277169
1:
10
#277339
0;
0/
#278905
1N
#280000
b1111 !
b1101 !
b1001 !
b1 !
12
#280517
1H
#280681
0I
#280691
0M
0K
#282018
1;
1/
#284342
0N
#284514
0L
#284558
0J
#285000
b1001 !
02
#285517
1M
#287339
0;
0/
#287474
0:
00
#287624
09
01
#288905
1N
#290000
b1101 !
b101 !
12
#290517
1K
#290691
0M
#292018
1;
1/
#294087
1L
#294342
0N
#295000
b1101 !
02
#295517
1M
#297169
1:
10
#297339
0;
0/
#298905
1N
#300000
b1111 !
b1011 !
b11 !
12
#300507
1I
#300691
0M
0K
#302018
1;
1/
#304140
1J
#304342
0N
#304514
0L
#305000
b1011 !
02
#305517
1M
#307330
19
11
#307339
0;
0/
#307474
0:
00
#308905
1N
#310000
b1111 !
b111 !
12
#310517
1K
#310691
0M
#312018
1;
1/
#314087
1L
#314342
0N
#315000
b1111 !
02
#315517
1M
#317169
1:
10
#317339
0;
0/
#318905
1N
#320000
0#
0"
b1110 !
b1100 !
b1000 !
b0 !
12
#320681
0I
0O
#320691
0M
0K
0H
0G
#322018
1;
1/
#324342
0N
#324514
0L
#324558
0J
#324963
0P
#325000
b1000 !
02
#325517
1M
#327339
0;
0/
#327474
0:
00
#327624
09
01
#328931
0<
0.
#328955
1P
#330000
b1100 !
b100 !
12
#330517
1K
#330691
0M
#332996
1<
1.
#334137
1N
#334401
0P
#335000
b1100 !
02
#335517
1M
#337250
1;
1/
#338369
0<
0.
#338955
1P
#340000
b1110 !
b1010 !
b10 !
12
#340507
1I
#340691
0M
0K
#342996
1<
1.
#344401
0P
#344409
1L
#344573
0N
#345000
b1010 !
02
#345517
1M
#347491
1:
10
#347570
0;
0/
#348369
0<
0.
#348955
1P
#350000
b1110 !
b110 !
12
#350517
1K
#350691
0M
#352996
1<
1.
#354137
1N
#354401
0P
#355000
b1110 !
02
#355517
1M
#357250
1;
1/
#358369
0<
0.
#358955
1P
#360000
b1111 !
b1101 !
b1001 !
b1 !
12
#360517
1H
#360681
0I
#360691
0M
0K
#362996
1<
1.
#364066
1J
#364401
0P
#364573
0N
#364855
0L
#365000
b1001 !
02
#365517
1M
#367256
19
11
#367570
0;
0/
#367815
0:
00
#368369
0<
0.
#368955
1P
#370000
b1101 !
b101 !
12
#370517
1K
#370691
0M
#372996
1<
1.
#374137
1N
#374401
0P
#375000
b1101 !
02
#375517
1M
#377250
1;
1/
#378369
0<
0.
#378955
1P
#380000
b1111 !
b1011 !
b11 !
12
#380507
1I
#380691
0M
0K
#382996
1<
1.
#384401
0P
#384409
1L
#384573
0N
#385000
b1011 !
02
#385517
1M
#387491
1:
10
#387570
0;
0/
#388369
0<
0.
#388955
1P
#390000
b1111 !
b111 !
12
#390517
1K
#390691
0M
#392996
1<
1.
#394137
1N
#394401
0P
#395000
b1111 !
02
#395517
1M
#397250
1;
1/
#398369
0<
0.
#398955
1P
#400000
1"
b1110 !
b1100 !
b1000 !
b0 !
12
#400517
1G
#400681
0I
#400691
0M
0K
0H
#402996
1<
1.
#404370
0L
#404401
0P
#404558
0J
#404573
0N
#405000
b1000 !
02
#405517
1M
#407330
0:
00
#407570
0;
0/
#407624
09
01
#408369
0<
0.
#408905
1N
#410000
b1100 !
b100 !
12
#410517
1K
#410691
0M
#412018
1;
1/
#414087
1L
#414342
0N
#415000
b1100 !
02
#415517
1M
#417169
1:
10
#417339
0;
0/
#418905
1N
#420000
b1110 !
b1010 !
b10 !
12
#420507
1I
#420691
0M
0K
#422018
1;
1/
#424140
1J
#424342
0N
#424514
0L
#425000
b1010 !
02
#425517
1M
#427330
19
11
#427339
0;
0/
#427474
0:
00
#428905
1N
#430000
b1110 !
b110 !
12
#430517
1K
#430691
0M
#432018
1;
1/
#434087
1L
#434342
0N
#435000
b1110 !
02
#435517
1M
#437169
1:
10
#437339
0;
0/
#438905
1N
#440000
b1111 !
b1101 !
b1001 !
b1 !
12
#440517
1H
#440681
0I
#440691
0M
0K
#442018
1;
1/
#444342
0N
#444514
0L
#444558
0J
#445000
b1001 !
02
#445517
1M
#447339
0;
0/
#447474
0:
00
#447624
09
01
#448905
1N
#450000
b1101 !
b101 !
12
#450517
1K
#450691
0M
#452018
1;
1/
#454087
1L
#454342
0N
#455000
b1101 !
02
#455517
1M
#457169
1:
10
#457339
0;
0/
#458905
1N
#460000
b1111 !
b1011 !
b11 !
12
#460507
1I
#460691
0M
0K
#462018
1;
1/
#464140
1J
#464342
0N
#464514
0L
#465000
b1011 !
02
#465517
1M
#467330
19
11
#467339
0;
0/
#467474
0:
00
#468905
1N
#470000
b1111 !
b111 !
12
#470517
1K
#470691
0M
#472018
1;
1/
#474087
1L
#474342
0N
#475000
b1111 !
02
#475517
1M
#477169
1:
10
#477339
0;
0/
#478905
1N
#480000
1#
0"
b1110 !
b1100 !
b1000 !
b0 !
12
#480507
1O
#480681
0I
#480691
0M
0K
0H
0G
#482018
1;
1/
#484342
0N
#484441
1P
#484514
0L
#484558
0J
#484888
0P
#485000
b1000 !
02
#485517
1M
#487339
0;
0/
#487474
0:
00
#487624
09
01
#488955
1P
#490000
b1100 !
b100 !
12
#490517
1K
#490691
0M
#492996
1<
1.
#494137
1N
#494401
0P
#495000
b1100 !
02
#495517
1M
#497250
1;
1/
#498369
0<
0.
#498955
1P
#500000
b1110 !
b1010 !
b10 !
12
#500507
1I
#500691
0M
0K
#502996
1<
1.
#504401
0P
#504409
1L
#504573
0N
#505000
b1010 !
02
#505517
1M
#507491
1:
10
#507570
0;
0/
#508369
0<
0.
#508955
1P
#510000
b1110 !
b110 !
12
#510517
1K
#510691
0M
#512996
1<
1.
#514137
1N
#514401
0P
#515000
b1110 !
02
#515517
1M
#517250
1;
1/
#518369
0<
0.
#518955
1P
#520000
b1111 !
b1101 !
b1001 !
b1 !
12
#520517
1H
#520681
0I
#520691
0M
0K
#522996
1<
1.
#524066
1J
#524401
0P
#524573
0N
#524855
0L
#525000
b1001 !
02
#525517
1M
#527256
19
11
#527570
0;
0/
#527815
0:
00
#528369
0<
0.
#528955
1P
#530000
b1101 !
b101 !
12
#530517
1K
#530691
0M
#532996
1<
1.
#534137
1N
#534401
0P
#535000
b1101 !
02
#535517
1M
#537250
1;
1/
#538369
0<
0.
#538955
1P
#540000
b1111 !
b1011 !
b11 !
12
#540507
1I
#540691
0M
0K
#542996
1<
1.
#544401
0P
#544409
1L
#544573
0N
#545000
b1011 !
02
#545517
1M
#547491
1:
10
#547570
0;
0/
#548369
0<
0.
#548955
1P
#550000
b1111 !
b111 !
12
#550517
1K
#550691
0M
#552996
1<
1.
#554137
1N
#554401
0P
#555000
b1111 !
02
#555517
1M
#557250
1;
1/
#558369
0<
0.
#558955
1P
#560000
1"
b1110 !
b1100 !
b1000 !
b0 !
12
#560517
1G
#560681
0I
#560691
0M
0K
0H
#562996
1<
1.
#564370
0L
#564558
0J
#564573
0N
#565000
b1000 !
02
#565517
1M
#567330
0:
00
#567570
0;
0/
#567624
09
01
#568905
1N
#570000
b1100 !
b100 !
12
#570517
1K
#570691
0M
#572018
1;
1/
#574087
1L
#574342
0N
#575000
b1100 !
02
#575517
1M
#577169
1:
10
#577339
0;
0/
#578905
1N
#580000
b1110 !
b1010 !
b10 !
12
#580507
1I
#580691
0M
0K
#582018
1;
1/
#584140
1J
#584342
0N
#584514
0L
#585000
b1010 !
02
#585517
1M
#587330
19
11
#587339
0;
0/
#587474
0:
00
#588905
1N
#590000
b1110 !
b110 !
12
#590517
1K
#590691
0M
#592018
1;
1/
#594087
1L
#594342
0N
#595000
b1110 !
02
#595517
1M
#597169
1:
10
#597339
0;
0/
#598905
1N
#600000
b1111 !
b1101 !
b1001 !
b1 !
12
#600517
1H
#600681
0I
#600691
0M
0K
#602018
1;
1/
#604342
0N
#604514
0L
#604558
0J
#605000
b1001 !
02
#605517
1M
#607339
0;
0/
#607474
0:
00
#607624
09
01
#608905
1N
#610000
b1101 !
b101 !
12
#610517
1K
#610691
0M
#612018
1;
1/
#614087
1L
#614342
0N
#615000
b1101 !
02
#615517
1M
#617169
1:
10
#617339
0;
0/
#618905
1N
#620000
b1111 !
b1011 !
b11 !
12
#620507
1I
#620691
0M
0K
#622018
1;
1/
#624140
1J
#624342
0N
#624514
0L
#625000
b1011 !
02
#625517
1M
#627330
19
11
#627339
0;
0/
#627474
0:
00
#628905
1N
#630000
b1111 !
b111 !
12
#630517
1K
#630691
0M
#632018
1;
1/
#634087
1L
#634342
0N
#635000
b1111 !
02
#635517
1M
#637169
1:
10
#637339
0;
0/
#638905
1N
#640000
0#
0"
b1110 !
b1100 !
b1000 !
b0 !
12
#640681
0I
0O
#640691
0M
0K
0H
0G
#642018
1;
1/
#644342
0N
#644514
0L
#644558
0J
#644963
0P
#645000
b1000 !
02
#645517
1M
#647339
0;
0/
#647474
0:
00
#647624
09
01
#648931
0<
0.
#648955
1P
#650000
b1100 !
b100 !
12
#650517
1K
#650691
0M
#652996
1<
1.
#654137
1N
#654401
0P
#655000
b1100 !
02
#655517
1M
#657250
1;
1/
#658369
0<
0.
#658955
1P
#660000
b1110 !
b1010 !
b10 !
12
#660507
1I
#660691
0M
0K
#662996
1<
1.
#664401
0P
#664409
1L
#664573
0N
#665000
b1010 !
02
#665517
1M
#667491
1:
10
#667570
0;
0/
#668369
0<
0.
#668955
1P
#670000
b1110 !
b110 !
12
#670517
1K
#670691
0M
#672996
1<
1.
#674137
1N
#674401
0P
#675000
b1110 !
02
#675517
1M
#677250
1;
1/
#678369
0<
0.
#678955
1P
#680000
b1111 !
b1101 !
b1001 !
b1 !
12
#680517
1H
#680681
0I
#680691
0M
0K
#682996
1<
1.
#684066
1J
#684401
0P
#684573
0N
#684855
0L
#685000
b1001 !
02
#685517
1M
#687256
19
11
#687570
0;
0/
#687815
0:
00
#688369
0<
0.
#688955
1P
#690000
b1101 !
b101 !
12
#690517
1K
#690691
0M
#692996
1<
1.
#694137
1N
#694401
0P
#695000
b1101 !
02
#695517
1M
#697250
1;
1/
#698369
0<
0.
#698955
1P
#700000
b1111 !
b1011 !
b11 !
12
#700507
1I
#700691
0M
0K
#702996
1<
1.
#704401
0P
#704409
1L
#704573
0N
#705000
b1011 !
02
#705517
1M
#707491
1:
10
#707570
0;
0/
#708369
0<
0.
#708955
1P
#710000
b1111 !
b111 !
12
#710517
1K
#710691
0M
#712996
1<
1.
#714137
1N
#714401
0P
#715000
b1111 !
02
#715517
1M
#717250
1;
1/
#718369
0<
0.
#718955
1P
#720000
1"
b1110 !
b1100 !
b1000 !
b0 !
12
#720517
1G
#720681
0I
#720691
0M
0K
0H
#722996
1<
1.
#724370
0L
#724401
0P
#724558
0J
#724573
0N
#725000
b1000 !
02
#725517
1M
#727330
0:
00
#727570
0;
0/
#727624
09
01
#728369
0<
0.
#728905
1N
#730000
b1100 !
b100 !
12
#730517
1K
#730691
0M
#732018
1;
1/
#734087
1L
#734342
0N
#735000
b1100 !
02
#735517
1M
#737169
1:
10
#737339
0;
0/
#738905
1N
#740000
b1110 !
b1010 !
b10 !
12
#740507
1I
#740691
0M
0K
#742018
1;
1/
#744140
1J
#744342
0N
#744514
0L
#745000
b1010 !
02
#745517
1M
#747330
19
11
#747339
0;
0/
#747474
0:
00
#748905
1N
#750000
b1110 !
b110 !
12
#750517
1K
#750691
0M
#752018
1;
1/
#754087
1L
#754342
0N
#755000
b1110 !
02
#755517
1M
#757169
1:
10
#757339
0;
0/
#758905
1N
#760000
b1111 !
b1101 !
b1001 !
b1 !
12
#760517
1H
#760681
0I
#760691
0M
0K
#762018
1;
1/
#764342
0N
#764514
0L
#764558
0J
#765000
b1001 !
02
#765517
1M
#767339
0;
0/
#767474
0:
00
#767624
09
01
#768905
1N
#770000
b1101 !
b101 !
12
#770517
1K
#770691
0M
#772018
1;
1/
#774087
1L
#774342
0N
#775000
b1101 !
02
#775517
1M
#777169
1:
10
#777339
0;
0/
#778905
1N
#780000
b1111 !
b1011 !
b11 !
12
#780507
1I
#780691
0M
0K
#782018
1;
1/
#784140
1J
#784342
0N
#784514
0L
#785000
b1011 !
02
#785517
1M
#787330
19
11
#787339
0;
0/
#787474
0:
00
#788905
1N
#790000
b1111 !
b111 !
12
#790517
1K
#790691
0M
#792018
1;
1/
#794087
1L
#794342
0N
#795000
b1111 !
02
#795517
1M
#797169
1:
10
#797339
0;
0/
#798905
1N
#800000
1#
0"
b1110 !
b1100 !
b1000 !
b0 !
12
#800507
1O
#800681
0I
#800691
0M
0K
0H
0G
#802018
1;
1/
#804342
0N
#804441
1P
#804514
0L
#804558
0J
#804888
0P
#805000
b1000 !
02
#805517
1M
#807339
0;
0/
#807474
0:
00
#807624
09
01
#808955
1P
#810000
b1100 !
b100 !
12
#810517
1K
#810691
0M
#812996
1<
1.
#814137
1N
#814401
0P
#815000
b1100 !
02
#815517
1M
#817250
1;
1/
#818369
0<
0.
#818955
1P
#820000
b1110 !
b1010 !
b10 !
12
#820507
1I
#820691
0M
0K
#822996
1<
1.
#824401
0P
#824409
1L
#824573
0N
#825000
b1010 !
02
#825517
1M
#827491
1:
10
#827570
0;
0/
#828369
0<
0.
#828955
1P
#830000
b1110 !
b110 !
12
#830517
1K
#830691
0M
#832996
1<
1.
#834137
1N
#834401
0P
#835000
b1110 !
02
#835517
1M
#837250
1;
1/
#838369
0<
0.
#838955
1P
#840000
b1111 !
b1101 !
b1001 !
b1 !
12
#840517
1H
#840681
0I
#840691
0M
0K
#842996
1<
1.
#844066
1J
#844401
0P
#844573
0N
#844855
0L
#845000
b1001 !
02
#845517
1M
#847256
19
11
#847570
0;
0/
#847815
0:
00
#848369
0<
0.
#848955
1P
#850000
b1101 !
b101 !
12
#850517
1K
#850691
0M
#852996
1<
1.
#854137
1N
#854401
0P
#855000
b1101 !
02
#855517
1M
#857250
1;
1/
#858369
0<
0.
#858955
1P
#860000
b1111 !
b1011 !
b11 !
12
#860507
1I
#860691
0M
0K
#862996
1<
1.
#864401
0P
#864409
1L
#864573
0N
#865000
b1011 !
02
#865517
1M
#867491
1:
10
#867570
0;
0/
#868369
0<
0.
#868955
1P
#870000
b1111 !
b111 !
12
#870517
1K
#870691
0M
#872996
1<
1.
#874137
1N
#874401
0P
#875000
b1111 !
02
#875517
1M
#877250
1;
1/
#878369
0<
0.
#878955
1P
#880000
1"
b1110 !
b1100 !
b1000 !
b0 !
12
#880517
1G
#880681
0I
#880691
0M
0K
0H
#882996
1<
1.
#884370
0L
#884558
0J
#884573
0N
#885000
b1000 !
02
#885517
1M
#887330
0:
00
#887570
0;
0/
#887624
09
01
#888905
1N
#890000
b1100 !
b100 !
12
#890517
1K
#890691
0M
#892018
1;
1/
#894087
1L
#894342
0N
#895000
b1100 !
02
#895517
1M
#897169
1:
10
#897339
0;
0/
#898905
1N
#900000
b1110 !
b1010 !
b10 !
12
#900507
1I
#900691
0M
0K
#902018
1;
1/
#904140
1J
#904342
0N
#904514
0L
#905000
b1010 !
02
#905517
1M
#907330
19
11
#907339
0;
0/
#907474
0:
00
#908905
1N
#910000
b1110 !
b110 !
12
#910517
1K
#910691
0M
#912018
1;
1/
#914087
1L
#914342
0N
#915000
b1110 !
02
#915517
1M
#917169
1:
10
#917339
0;
0/
#918905
1N
#920000
b1111 !
b1101 !
b1001 !
b1 !
12
#920517
1H
#920681
0I
#920691
0M
0K
#922018
1;
1/
#924342
0N
#924514
0L
#924558
0J
#925000
b1001 !
02
#925517
1M
#927339
0;
0/
#927474
0:
00
#927624
09
01
#928905
1N
#930000
b1101 !
b101 !
12
#930517
1K
#930691
0M
#932018
1;
1/
#934087
1L
#934342
0N
#935000
b1101 !
02
#935517
1M
#937169
1:
10
#937339
0;
0/
#938905
1N
#940000
b1111 !
b1011 !
b11 !
12
#940507
1I
#940691
0M
0K
#942018
1;
1/
#944140
1J
#944342
0N
#944514
0L
#945000
b1011 !
02
#945517
1M
#947330
19
11
#947339
0;
0/
#947474
0:
00
#948905
1N
#950000
b1111 !
b111 !
12
#950517
1K
#950691
0M
#952018
1;
1/
#954087
1L
#954342
0N
#955000
b1111 !
02
#955517
1M
#957169
1:
10
#957339
0;
0/
#958905
1N
#960000
0#
0"
b1110 !
b1100 !
b1000 !
b0 !
12
#960681
0I
0O
#960691
0M
0K
0H
0G
#962018
1;
1/
#964342
0N
#964514
0L
#964558
0J
#964963
0P
#965000
b1000 !
02
#965517
1M
#967339
0;
0/
#967474
0:
00
#967624
09
01
#968931
0<
0.
#968955
1P
#970000
b1100 !
b100 !
12
#970517
1K
#970691
0M
#972996
1<
1.
#974137
1N
#974401
0P
#975000
b1100 !
02
#975517
1M
#977250
1;
1/
#978369
0<
0.
#978955
1P
#980000
b1110 !
b1010 !
b10 !
12
#980507
1I
#980691
0M
0K
#982996
1<
1.
#984401
0P
#984409
1L
#984573
0N
#985000
b1010 !
02
#985517
1M
#987491
1:
10
#987570
0;
0/
#988369
0<
0.
#988955
1P
#990000
b1110 !
b110 !
12
#990517
1K
#990691
0M
#992996
1<
1.
#994137
1N
#994401
0P
#995000
b1110 !
02
#995517
1M
#997250
1;
1/
#998369
0<
0.
#998955
1P
