trabalho_td/simulation/qsim/trabalho_td.msim.vcd
$comment
	File created using the following command:
		vcd file trabalho_td.msim.vcd -direction
$end
$date
	Sun Jan 18 18:03:23 2026
$end
$version
	ModelSim Version 10.1d
$end
$timescale
	1ps
$end
$scope module display_7seg_vlg_vec_tst $end
$var reg 14 ! entrada [13:0] $end
$var wire 1 " s_dezena [6] $end
$var wire 1 # s_dezena [5] $end
$var wire 1 $ s_dezena [4] $end
$var wire 1 % s_dezena [3] $end
$var wire 1 & s_dezena [2] $end
$var wire 1 ' s_dezena [1] $end
$var wire 1 ( s_dezena [0] $end
$var wire 1 ) s_unidade [6] $end
$var wire 1 * s_unidade [5] $end
$var wire 1 + s_unidade [4] $end
$var wire 1 , s_unidade [3] $end
$var wire 1 - s_unidade [2] $end
$var wire 1 . s_unidade [1] $end
$var wire 1 / s_unidade [0] $end
$var wire 1 0 sampler $end
$scope module i1 $end
$var wire 1 1 gnd $end
$var wire 1 2 vcc $end
$var wire 1 3 unknown $end
$var tri1 1 4 devclrn $end
$var tri1 1 5 devpor $end
$var tri1 1 6 devoe $end
$var wire 1 7 Div0|auto_generated|divider|divider|add_sub_3_result_int[2]~2_combout $end
$var wire 1 8 Div0|auto_generated|divider|divider|add_sub_3_result_int[3]~4_combout $end
$var wire 1 9 Div0|auto_generated|divider|divider|add_sub_4_result_int[2]~2_combout $end
$var wire 1 : Div0|auto_generated|divider|divider|add_sub_5_result_int[1]~0_combout $end
$var wire 1 ; Div0|auto_generated|divider|divider|add_sub_5_result_int[2]~2_combout $end
$var wire 1 < Mod0|auto_generated|divider|divider|add_sub_4_result_int[2]~2_combout $end
$var wire 1 = Mod0|auto_generated|divider|divider|add_sub_4_result_int[3]~4_combout $end
$var wire 1 > Mod0|auto_generated|divider|divider|add_sub_5_result_int[1]~0_combout $end
$var wire 1 ? Mod0|auto_generated|divider|divider|add_sub_5_result_int[2]~2_combout $end
$var wire 1 @ Mod0|auto_generated|divider|divider|add_sub_5_result_int[3]~4_combout $end
$var wire 1 A Mod0|auto_generated|divider|divider|add_sub_5_result_int[4]~6_combout $end
$var wire 1 B Mod0|auto_generated|divider|divider|add_sub_5_result_int[5]~8_combout $end
$var wire 1 C Mod0|auto_generated|divider|divider|add_sub_6_result_int[3]~5 $end
$var wire 1 D Mod0|auto_generated|divider|divider|add_sub_6_result_int[4]~7_cout $end
$var wire 1 E Mod0|auto_generated|divider|divider|add_sub_6_result_int[5]~9_cout $end
$var wire 1 F Mod0|auto_generated|divider|divider|add_sub_6_result_int[6]~11_cout $end
$var wire 1 G Mod0|auto_generated|divider|divider|add_sub_6_result_int[7]~12_combout $end
$var wire 1 H Div0|auto_generated|divider|divider|StageOut[18]~27_combout $end
$var wire 1 I Div0|auto_generated|divider|divider|StageOut[17]~29_combout $end
$var wire 1 J Div0|auto_generated|divider|divider|StageOut[16]~31_combout $end
$var wire 1 K Div0|auto_generated|divider|divider|StageOut[15]~32_combout $end
$var wire 1 L Div0|auto_generated|divider|divider|StageOut[22]~35_combout $end
$var wire 1 M Div0|auto_generated|divider|divider|StageOut[21]~37_combout $end
$var wire 1 N Div0|auto_generated|divider|divider|StageOut[20]~39_combout $end
$var wire 1 O Div0|auto_generated|divider|divider|StageOut[27]~41_combout $end
$var wire 1 P Div0|auto_generated|divider|divider|StageOut[26]~43_combout $end
$var wire 1 Q Div0|auto_generated|divider|divider|StageOut[25]~45_combout $end
$var wire 1 R Mod0|auto_generated|divider|divider|StageOut[24]~38_combout $end
$var wire 1 S Mod0|auto_generated|divider|divider|StageOut[23]~40_combout $end
$var wire 1 T Mod0|auto_generated|divider|divider|StageOut[22]~42_combout $end
$var wire 1 U Mod0|auto_generated|divider|divider|StageOut[21]~44_combout $end
$var wire 1 V Mod0|auto_generated|divider|divider|StageOut[31]~47_combout $end
$var wire 1 W Mod0|auto_generated|divider|divider|StageOut[30]~48_combout $end
$var wire 1 X Mod0|auto_generated|divider|divider|StageOut[29]~50_combout $end
$var wire 1 Y Mod0|auto_generated|divider|divider|StageOut[28]~51_combout $end
$var wire 1 Z Mod0|auto_generated|divider|divider|StageOut[35]~53_combout $end
$var wire 1 [ Mod0|auto_generated|divider|divider|StageOut[40]~55_combout $end
$var wire 1 \ Mod0|auto_generated|divider|divider|StageOut[39]~56_combout $end
$var wire 1 ] Mod0|auto_generated|divider|divider|StageOut[38]~57_combout $end
$var wire 1 ^ Div0|auto_generated|divider|divider|StageOut[28]~46_combout $end
$var wire 1 _ Mod0|auto_generated|divider|divider|StageOut[40]~64_combout $end
$var wire 1 ` Mod0|auto_generated|divider|divider|StageOut[39]~65_combout $end
$var wire 1 a Mod0|auto_generated|divider|divider|StageOut[38]~66_combout $end
$var wire 1 b Div0|auto_generated|divider|divider|StageOut[23]~47_combout $end
$var wire 1 c Mod0|auto_generated|divider|divider|StageOut[32]~67_combout $end
$var wire 1 d entrada[7]~input_o $end
$var wire 1 e entrada[8]~input_o $end
$var wire 1 f entrada[9]~input_o $end
$var wire 1 g entrada[10]~input_o $end
$var wire 1 h entrada[11]~input_o $end
$var wire 1 i entrada[12]~input_o $end
$var wire 1 j entrada[13]~input_o $end
$var wire 1 k s_dezena[0]~output_o $end
$var wire 1 l s_dezena[1]~output_o $end
$var wire 1 m s_dezena[2]~output_o $end
$var wire 1 n s_dezena[3]~output_o $end
$var wire 1 o s_dezena[4]~output_o $end
$var wire 1 p s_dezena[5]~output_o $end
$var wire 1 q s_dezena[6]~output_o $end
$var wire 1 r s_unidade[0]~output_o $end
$var wire 1 s s_unidade[1]~output_o $end
$var wire 1 t s_unidade[2]~output_o $end
$var wire 1 u s_unidade[3]~output_o $end
$var wire 1 v s_unidade[4]~output_o $end
$var wire 1 w s_unidade[5]~output_o $end
$var wire 1 x s_unidade[6]~output_o $end
$var wire 1 y entrada[6]~input_o $end
$var wire 1 z entrada[5]~input_o $end
$var wire 1 { entrada[4]~input_o $end
$var wire 1 | Div0|auto_generated|divider|divider|add_sub_3_result_int[1]~1 $end
$var wire 1 } Div0|auto_generated|divider|divider|add_sub_3_result_int[2]~3 $end
$var wire 1 ~ Div0|auto_generated|divider|divider|add_sub_3_result_int[3]~5 $end
$var wire 1 !! Div0|auto_generated|divider|divider|add_sub_3_result_int[4]~6_combout $end
$var wire 1 "! Div0|auto_generated|divider|divider|StageOut[17]~28_combout $end
$var wire 1 #! Div0|auto_generated|divider|divider|StageOut[16]~30_combout $end
$var wire 1 $! entrada[3]~input_o $end
$var wire 1 %! Div0|auto_generated|divider|divider|StageOut[15]~33_combout $end
$var wire 1 &! Div0|auto_generated|divider|divider|add_sub_4_result_int[1]~1 $end
$var wire 1 '! Div0|auto_generated|divider|divider|add_sub_4_result_int[2]~3 $end
$var wire 1 (! Div0|auto_generated|divider|divider|add_sub_4_result_int[3]~4_combout $end
$var wire 1 )! Div0|auto_generated|divider|divider|StageOut[18]~26_combout $end
$var wire 1 *! Div0|auto_generated|divider|divider|add_sub_4_result_int[3]~5 $end
$var wire 1 +! Div0|auto_generated|divider|divider|add_sub_4_result_int[4]~7_cout $end
$var wire 1 ,! Div0|auto_generated|divider|divider|add_sub_4_result_int[5]~8_combout $end
$var wire 1 -! Div0|auto_generated|divider|divider|StageOut[23]~34_combout $end
$var wire 1 .! Div0|auto_generated|divider|divider|add_sub_3_result_int[1]~0_combout $end
$var wire 1 /! Div0|auto_generated|divider|divider|StageOut[22]~48_combout $end
$var wire 1 0! Div0|auto_generated|divider|divider|StageOut[21]~36_combout $end
$var wire 1 1! entrada[2]~input_o $end
$var wire 1 2! Div0|auto_generated|divider|divider|StageOut[20]~38_combout $end
$var wire 1 3! Div0|auto_generated|divider|divider|add_sub_5_result_int[1]~1 $end
$var wire 1 4! Div0|auto_generated|divider|divider|add_sub_5_result_int[2]~3 $end
$var wire 1 5! Div0|auto_generated|divider|divider|add_sub_5_result_int[3]~5 $end
$var wire 1 6! Div0|auto_generated|divider|divider|add_sub_5_result_int[4]~7_cout $end
$var wire 1 7! Div0|auto_generated|divider|divider|add_sub_5_result_int[5]~8_combout $end
$var wire 1 8! Div0|auto_generated|divider|divider|add_sub_5_result_int[3]~4_combout $end
$var wire 1 9! Div0|auto_generated|divider|divider|StageOut[28]~40_combout $end
$var wire 1 :! Div0|auto_generated|divider|divider|add_sub_4_result_int[1]~0_combout $end
$var wire 1 ;! Div0|auto_generated|divider|divider|StageOut[27]~49_combout $end
$var wire 1 <! Div0|auto_generated|divider|divider|StageOut[26]~42_combout $end
$var wire 1 =! entrada[1]~input_o $end
$var wire 1 >! Div0|auto_generated|divider|divider|StageOut[25]~44_combout $end
$var wire 1 ?! Div0|auto_generated|divider|divider|add_sub_6_result_int[1]~1_cout $end
$var wire 1 @! Div0|auto_generated|divider|divider|add_sub_6_result_int[2]~3_cout $end
$var wire 1 A! Div0|auto_generated|divider|divider|add_sub_6_result_int[3]~5_cout $end
$var wire 1 B! Div0|auto_generated|divider|divider|add_sub_6_result_int[4]~7_cout $end
$var wire 1 C! Div0|auto_generated|divider|divider|add_sub_6_result_int[5]~8_combout $end
$var wire 1 D! Mux6~0_combout $end
$var wire 1 E! Mux5~0_combout $end
$var wire 1 F! Mux4~0_combout $end
$var wire 1 G! Mux3~0_combout $end
$var wire 1 H! Mux2~0_combout $end
$var wire 1 I! Mux1~0_combout $end
$var wire 1 J! Mux0~0_combout $end
$var wire 1 K! Mod0|auto_generated|divider|divider|add_sub_3_result_int[1]~1 $end
$var wire 1 L! Mod0|auto_generated|divider|divider|add_sub_3_result_int[2]~3 $end
$var wire 1 M! Mod0|auto_generated|divider|divider|add_sub_3_result_int[3]~5 $end
$var wire 1 N! Mod0|auto_generated|divider|divider|add_sub_3_result_int[4]~6_combout $end
$var wire 1 O! Mod0|auto_generated|divider|divider|add_sub_3_result_int[3]~4_combout $end
$var wire 1 P! Mod0|auto_generated|divider|divider|StageOut[24]~39_combout $end
$var wire 1 Q! Mod0|auto_generated|divider|divider|add_sub_3_result_int[2]~2_combout $end
$var wire 1 R! Mod0|auto_generated|divider|divider|StageOut[23]~41_combout $end
$var wire 1 S! Mod0|auto_generated|divider|divider|add_sub_3_result_int[1]~0_combout $end
$var wire 1 T! Mod0|auto_generated|divider|divider|StageOut[22]~43_combout $end
$var wire 1 U! Mod0|auto_generated|divider|divider|StageOut[21]~45_combout $end
$var wire 1 V! Mod0|auto_generated|divider|divider|add_sub_4_result_int[1]~1 $end
$var wire 1 W! Mod0|auto_generated|divider|divider|add_sub_4_result_int[2]~3 $end
$var wire 1 X! Mod0|auto_generated|divider|divider|add_sub_4_result_int[3]~5 $end
$var wire 1 Y! Mod0|auto_generated|divider|divider|add_sub_4_result_int[4]~6_combout $end
$var wire 1 Z! Mod0|auto_generated|divider|divider|StageOut[32]~46_combout $end
$var wire 1 [! Mod0|auto_generated|divider|divider|add_sub_4_result_int[4]~7 $end
$var wire 1 \! Mod0|auto_generated|divider|divider|add_sub_4_result_int[5]~8_combout $end
$var wire 1 ]! Mod0|auto_generated|divider|divider|StageOut[31]~68_combout $end
$var wire 1 ^! Mod0|auto_generated|divider|divider|StageOut[30]~69_combout $end
$var wire 1 _! Mod0|auto_generated|divider|divider|StageOut[29]~49_combout $end
$var wire 1 `! Mod0|auto_generated|divider|divider|StageOut[28]~52_combout $end
$var wire 1 a! Mod0|auto_generated|divider|divider|add_sub_5_result_int[1]~1 $end
$var wire 1 b! Mod0|auto_generated|divider|divider|add_sub_5_result_int[2]~3 $end
$var wire 1 c! Mod0|auto_generated|divider|divider|add_sub_5_result_int[3]~5 $end
$var wire 1 d! Mod0|auto_generated|divider|divider|add_sub_5_result_int[4]~7 $end
$var wire 1 e! Mod0|auto_generated|divider|divider|add_sub_5_result_int[5]~9 $end
$var wire 1 f! Mod0|auto_generated|divider|divider|add_sub_5_result_int[6]~10_combout $end
$var wire 1 g! Mod0|auto_generated|divider|divider|StageOut[37]~58_combout $end
$var wire 1 h! Mod0|auto_generated|divider|divider|StageOut[36]~59_combout $end
$var wire 1 i! Mod0|auto_generated|divider|divider|StageOut[35]~54_combout $end
$var wire 1 j! Mod0|auto_generated|divider|divider|add_sub_6_result_int[1]~1 $end
$var wire 1 k! Mod0|auto_generated|divider|divider|add_sub_6_result_int[2]~3 $end
$var wire 1 l! Mod0|auto_generated|divider|divider|add_sub_6_result_int[3]~4_combout $end
$var wire 1 m! Mod0|auto_generated|divider|divider|add_sub_4_result_int[1]~0_combout $end
$var wire 1 n! Mod0|auto_generated|divider|divider|StageOut[37]~70_combout $end
$var wire 1 o! Mod0|auto_generated|divider|divider|StageOut[45]~63_combout $end
$var wire 1 p! Mod0|auto_generated|divider|divider|add_sub_6_result_int[2]~2_combout $end
$var wire 1 q! Mod0|auto_generated|divider|divider|StageOut[36]~60_combout $end
$var wire 1 r! Mod0|auto_generated|divider|divider|StageOut[44]~62_combout $end
$var wire 1 s! Mod0|auto_generated|divider|divider|add_sub_6_result_int[1]~0_combout $end
$var wire 1 t! Mod0|auto_generated|divider|divider|StageOut[43]~61_combout $end
$var wire 1 u! entrada[0]~input_o $end
$var wire 1 v! Mux13~0_combout $end
$var wire 1 w! Mux12~0_combout $end
$var wire 1 x! Mux11~0_combout $end
$var wire 1 y! Mux10~0_combout $end
$var wire 1 z! Mux9~0_combout $end
$var wire 1 {! Mux8~0_combout $end
$var wire 1 |! Mux7~0_combout $end
$upscope $end
$upscope $end
$enddefinitions $end
#0
$dumpvars
b0 !
x(
x'
x&
x%
x$
x#
x"
x/
x.
x-
x,
x+
x*
x)
x0
01
12
x3
14
15
16
x7
x8
x9
x:
x;
x<
x=
x>
x?
x@
xA
xB
xC
xD
xE
xF
xG
xH
xI
xJ
xK
xL
xM
xN
xO
xP
xQ
xR
xS
xT
xU
xV
xW
xX
xY
xZ
x[
x\
x]
x^
x_
x`
xa
xb
xc
0d
0e
0f
0g
0h
0i
0j
xk
xl
xm
xn
xo
xp
xq
xr
xs
xt
xu
xv
xw
xx
0y
0z
0{
x|
x}
x~
x!!
x"!
x#!
0$!
x%!
x&!
x'!
x(!
x)!
x*!
x+!
x,!
x-!
x.!
x/!
x0!
01!
x2!
x3!
x4!
x5!
x6!
x7!
x8!
x9!
x:!
x;!
x<!
0=!
x>!
x?!
x@!
xA!
xB!
xC!
xD!
xE!
xF!
xG!
xH!
xI!
xJ!
xK!
xL!
xM!
xN!
xO!
xP!
xQ!
xR!
xS!
xT!
xU!
xV!
xW!
xX!
xY!
xZ!
x[!
x\!
x]!
x^!
x_!
x`!
xa!
xb!
xc!
xd!
xe!
xf!
xg!
xh!
xi!
xj!
xk!
xl!
xm!
xn!
xo!
xp!
xq!
xr!
xs!
xt!
0u!
xv!
xw!
xx!
xy!
xz!
x{!
x|!
$end
#500
b10000000000000 !
1j
00
#1000
b11000000000000 !
b1000000000000 !
1i
0j
10
#1500
b11000000000000 !
1j
00
#2000
b11100000000000 !
b10100000000000 !
b100000000000 !
1h
0i
0j
10
#2500
b10100000000000 !
1j
00
#3000
b11100000000000 !
b1100000000000 !
1i
0j
10
#3500
b11100000000000 !
1j
00
#3575
0)!
#3683
0~
#3702
0h!
#3752
0T
#3768
0Y
#3770
0`!
#3787
02!
#3790
0N
#3830
0_!
#3834
0R
#3861
0%!
#3862
0U
#3865
0U!
#3901
0S
#3942
0#!
#3943
0M!
#3990
0K!
#4000
b11110000000000 !
b11010000000000 !
b10010000000000 !
b10000000000 !
1g
0h
0i
0j
10
#4027
1S!
#4031
0<!
#4048
1L!
#4050
0"!
#4117
0Q
#4121
0>!
#4138
1!!
#4185
0|
#4222
1.!
#4225
0K
00!
#4243
1}
#4331
0a!
#4353
03!
#4370
1>
#4392
1:
#4398
1N!
#4422
0V!
#4445
1Q!
#4461
1m!
#4485
0O!
#4500
b10010000000000 !
1j
00
#4501
0J
#4502
0H
#4503
0I
#4567
0Z
#4568
0i!
#4640
17
#4677
0?!
#4680
08
#4782
0b
#4783
0/!
#4869
0P!
0T!
#4871
0^!
#4979
0c
#5000
b11010000000000 !
b1010000000000 !
1i
0j
10
#5091
0&!
#5128
1:!
#5131
0j!
#5149
1'!
#5151
0]!
#5153
0R!
#5170
1s!
#5207
0*!
#5265
1+!
#5500
b11010000000000 !
1j
00
#5546
19
#5555
0(!
#5712
0X!
#5720
1,!
#5770
1[!
#5883
1<
#5979
1W!
#6000
b11110000000000 !
b10110000000000 !
b110000000000 !
1h
0i
0j
10
#6160
0-!
#6167
1Y!
#6225
1\!
#6235
0^
#6236
0;!
#6237
0L
0M
#6414
0E!
#6416
0=
#6500
b10110000000000 !
1j
00
#6686
0V
#6687
0X
#6688
0`
#6834
1;
#6920
14!
#6926
05!
#6984
16!
#7000
b11110000000000 !
b1110000000000 !
1i
0j
10
#7178
0W
#7184
0a
#7262
0n!
#7276
0_
#7339
0Z!
#7357
08!
#7439
17!
#7500
b11110000000000 !
1j
00
#7675
09!
#7712
1?
#7739
0c!
#7797
1d!
#7798
1b!
#7855
0e!
#7893
0O
#8000
b11111000000000 !
b11101000000000 !
b11001000000000 !
b10001000000000 !
b1000000000 !
1f
0g
0h
0i
0j
10
#8124
0J!
0P
0F!
#8194
1A
#8235
0@
#8252
1B
#8310
1f!
#8500
b10001000000000 !
1j
00
#8590
0A!
#8648
1B!
#8649
0[
#8654
0\
#8681
0]
#8963
1@!
#9000
b11001000000000 !
b1001000000000 !
1i
0j
10
#9103
1C!
#9500
b11001000000000 !
1j
00
#9673
0g!
#9674
0q!
#9699
0D!
#9732
0H!
#9735
0G!
#9736
0I!
#9992
0l
0'
#10000
b11101000000000 !
b10101000000000 !
b101000000000 !
1h
0i
0j
10
#10239
0C
#10297
1D
#10355
0E
#10413
1F
#10414
1p!
#10500
1k!
b10101000000000 !
1j
00
#10868
1G
#10937
0l!
#11000
b11101000000000 !
b1101000000000 !
1i
0j
10
#11410
0m
0&
#11443
0t!
#11473
0o!
0r!
#11500
b11101000000000 !
1j
00
#11855
1q
1"
#12000
b11111000000000 !
b11011000000000 !
b10011000000000 !
b11000000000 !
1g
0h
0i
0j
10
#12500
b10011000000000 !
1j
00
#12945
0k
0(
#13000
b11011000000000 !
b1011000000000 !
1i
0j
10
#13017
0o
0$
#13060
0v!
#13061
0w!
0x!
#13063
0z!
#13067
0{!
#13068
0y!
#13167
0p
0#
#13206
0|!
#13500
b11011000000000 !
1j
00
#13601
0n
0%
#14000
b11111000000000 !
b10111000000000 !
b111000000000 !
1h
0i
0j
10
#14500
b10111000000000 !
1j
00
#15000
b11111000000000 !
b1111000000000 !
1i
0j
10
#15500
b11111000000000 !
1j
00
#16000
b11111100000000 !
b11110100000000 !
b11100100000000 !
b11000100000000 !
b10000100000000 !
b100000000 !
1e
0f
0g
0h
0i
0j
10
#16023
0t
0-
#16038
0u
0,
#16299
0w
0*
#16319
0s
0.
#16360
0v
0+
#16500
b10000100000000 !
1j
00
#16563
0r
0/
#16678
1x
1)
#17000
b11000100000000 !
b1000100000000 !
1i
0j
10
#17500
b11000100000000 !
1j
00
#18000
b11100100000000 !
b10100100000000 !
b100100000000 !
1h
0i
0j
10
#18500
b10100100000000 !
1j
00
#19000
b11100100000000 !
b1100100000000 !
1i
0j
10
#19500
b11100100000000 !
1j
00
#20000
b11110100000000 !
b11010100000000 !
b10010100000000 !
b10100000000 !
1g
0h
0i
0j
10
#20500
b10010100000000 !
1j
00
#21000
b11010100000000 !
b1010100000000 !
1i
0j
10
#21500
b11010100000000 !
1j
00
#22000
b11110100000000 !
b10110100000000 !
b110100000000 !
1h
0i
0j
10
#22500
b10110100000000 !
1j
00
#23000
b11110100000000 !
b1110100000000 !
1i
0j
10
#23500
b11110100000000 !
1j
00
#24000
b11111100000000 !
b11101100000000 !
b11001100000000 !
b10001100000000 !
b1100000000 !
1f
0g
0h
0i
0j
10
#24500
b10001100000000 !
1j
00
#25000
b11001100000000 !
b1001100000000 !
1i
0j
10
#25500
b11001100000000 !
1j
00
#26000
b11101100000000 !
b10101100000000 !
b101100000000 !
1h
0i
0j
10
#26500
b10101100000000 !
1j
00
#27000
b11101100000000 !
b1101100000000 !
1i
0j
10
#27500
b11101100000000 !
1j
00
#28000
b11111100000000 !
b11011100000000 !
b10011100000000 !
b11100000000 !
1g
0h
0i
0j
10
#28500
b10011100000000 !
1j
00
#29000
b11011100000000 !
b1011100000000 !
1i
0j
10
#29500
b11011100000000 !
1j
00
#30000
b11111100000000 !
b10111100000000 !
b111100000000 !
1h
0i
0j
10
#30500
b10111100000000 !
1j
00
#31000
b11111100000000 !
b1111100000000 !
1i
0j
10
#31500
b11111100000000 !
1j
00
#32000
b11111110000000 !
b11111010000000 !
b11110010000000 !
b11100010000000 !
b11000010000000 !
b10000010000000 !
b10000000 !
1d
0e
0f
0g
0h
0i
0j
10
#32500
b10000010000000 !
1j
00
#33000
b11000010000000 !
b1000010000000 !
1i
0j
10
#33500
b11000010000000 !
1j
00
#34000
b11100010000000 !
b10100010000000 !
b100010000000 !
1h
0i
0j
10
#34500
b10100010000000 !
1j
00
#35000
b11100010000000 !
b1100010000000 !
1i
0j
10
#35500
b11100010000000 !
1j
00
#36000
b11110010000000 !
b11010010000000 !
b10010010000000 !
b10010000000 !
1g
0h
0i
0j
10
#36500
b10010010000000 !
1j
00
#37000
b11010010000000 !
b1010010000000 !
1i
0j
10
#37500
b11010010000000 !
1j
00
#38000
b11110010000000 !
b10110010000000 !
b110010000000 !
1h
0i
0j
10
#38500
b10110010000000 !
1j
00
#39000
b11110010000000 !
b1110010000000 !
1i
0j
10
#39500
b11110010000000 !
1j
00
#40000
b11111010000000 !
b11101010000000 !
b11001010000000 !
b10001010000000 !
b1010000000 !
1f
0g
0h
0i
0j
10
#40500
b10001010000000 !
1j
00
#41000
b11001010000000 !
b1001010000000 !
1i
0j
10
#41500
b11001010000000 !
1j
00
#42000
b11101010000000 !
b10101010000000 !
b101010000000 !
1h
0i
0j
10
#42500
b10101010000000 !
1j
00
#43000
b11101010000000 !
b1101010000000 !
1i
0j
10
#43500
b11101010000000 !
1j
00
#44000
b11111010000000 !
b11011010000000 !
b10011010000000 !
b11010000000 !
1g
0h
0i
0j
10
#44500
b10011010000000 !
1j
00
#45000
b11011010000000 !
b1011010000000 !
1i
0j
10
#45500
b11011010000000 !
1j
00
#46000
b11111010000000 !
b10111010000000 !
b111010000000 !
1h
0i
0j
10
#46500
b10111010000000 !
1j
00
#47000
b11111010000000 !
b1111010000000 !
1i
0j
10
#47500
b11111010000000 !
1j
00
#48000
b11111110000000 !
b11110110000000 !
b11100110000000 !
b11000110000000 !
b10000110000000 !
b110000000 !
1e
0f
0g
0h
0i
0j
10
#48500
b10000110000000 !
1j
00
#49000
b11000110000000 !
b1000110000000 !
1i
0j
10
#49500
b11000110000000 !
1j
00
#50000
b11100110000000 !
b10100110000000 !
b100110000000 !
1h
0i
0j
10
#50500
b10100110000000 !
1j
00
#51000
b11100110000000 !
b1100110000000 !
1i
0j
10
#51500
b11100110000000 !
1j
00
#52000
b11110110000000 !
b11010110000000 !
b10010110000000 !
b10110000000 !
1g
0h
0i
0j
10
#52500
b10010110000000 !
1j
00
#53000
b11010110000000 !
b1010110000000 !
1i
0j
10
#53500
b11010110000000 !
1j
00
#54000
b11110110000000 !
b10110110000000 !
b110110000000 !
1h
0i
0j
10
#54500
b10110110000000 !
1j
00
#55000
b11110110000000 !
b1110110000000 !
1i
0j
10
#55500
b11110110000000 !
1j
00
#56000
b11111110000000 !
b11101110000000 !
b11001110000000 !
b10001110000000 !
b1110000000 !
1f
0g
0h
0i
0j
10
#56500
b10001110000000 !
1j
00
#57000
b11001110000000 !
b1001110000000 !
1i
0j
10
#57500
b11001110000000 !
1j
00
#58000
b11101110000000 !
b10101110000000 !
b101110000000 !
1h
0i
0j
10
#58500
b10101110000000 !
1j
00
#59000
b11101110000000 !
b1101110000000 !
1i
0j
10
#59500
b11101110000000 !
1j
00
#60000
b11111110000000 !
b11011110000000 !
b10011110000000 !
b11110000000 !
1g
0h
0i
0j
10
#60500
b10011110000000 !
1j
00
#61000
b11011110000000 !
b1011110000000 !
1i
0j
10
#61500
b11011110000000 !
1j
00
#62000
b11111110000000 !
b10111110000000 !
b111110000000 !
1h
0i
0j
10
#62500
b10111110000000 !
1j
00
#63000
b11111110000000 !
b1111110000000 !
1i
0j
10
#63500
b11111110000000 !
1j
00
#64000
b11111111000000 !
b11111101000000 !
b11111001000000 !
b11110001000000 !
b11100001000000 !
b11000001000000 !
b10000001000000 !
b1000000 !
0d
0e
0f
0g
0h
0i
0j
10
#64500
b10000001000000 !
1j
00
#64537
1y
#65000
b11000001000000 !
b1000001000000 !
1i
0j
10
#65500
b11000001000000 !
1j
00
#66000
b11100001000000 !
b10100001000000 !
b100001000000 !
1h
0i
0j
10
#66500
b10100001000000 !
1j
00
#67000
b11100001000000 !
b1100001000000 !
1i
0j
10
#67500
b11100001000000 !
1j
00
#67866
1)!
#68000
b11110001000000 !
b11010001000000 !
b10010001000000 !
b10001000000 !
1g
0h
0i
0j
10
#68008
18
#68072
1c
#68082
1R
#68223
1O!
#68391
0+!
#68500
b10010001000000 !
1j
00
#68608
0[!
#68659
0Y!
#68828
0,!
#69000
b11010001000000 !
b1010001000000 !
1i
0j
10
#69012
1_
#69037
0B
#69045
0\!
#69154
1e!
#69383
1^
#69384
1M
1;!
#69385
1L
#69500
b11010001000000 !
1j
00
#69546
1H!
#69548
1X
1G!
#69549
1J!
1D!
#69591
0f!
#69910
04!
#69961
0;
#69968
15!
#69970
0_
#69981
1\
#70000
b11110001000000 !
b10110001000000 !
b110001000000 !
1h
0i
0j
10
#70026
06!
#70029
1W
#70080
0B!
#70106
0c
#70109
1n!
#70143
0F
#70463
07!
#70500
b10110001000000 !
1j
00
#70508
0b!
#70517
0C!
#70536
1o!
#70559
0?
#70566
1c!
#70580
0G
#70624
0d!
#70681
1l!
#70948
1E
#70981
1g!
#70982
1q!
#71000
b11110001000000 !
b1110001000000 !
1i
0j
10
#71003
0A
#71085
0;!
#71098
0n!
#71169
0D!
#71190
1t!
#71213
0J!
1P
1I!
#71222
1r!
#71229
0^
#71500
b11110001000000 !
1j
00
#71563
0g!
#71612
0\
#71672
0k!
#71723
0p!
#71730
1C
#71788
0D
#71907
0@!
#72000
b11111001000000 !
b11101001000000 !
b11001001000000 !
b10001001000000 !
b1001000000 !
1f
0g
0h
0i
0j
10
#72074
1B!
#72129
0C
#72187
1D
#72215
1|!
#72245
0E
#72303
1F
#72313
0r!
#72500
b10001001000000 !
1j
00
#72529
1C!
#72541
1y!
#72542
1{!
#72544
1z!
#72545
1w!
1x!
#72546
1v!
#72758
1G
#72946
1o
1$
#73000
b11001001000000 !
b1001001000000 !
1i
0j
10
#73127
1J!
#73147
1E!
#73158
0H!
#73161
0G!
#73162
0I!
#73333
0t!
#73358
1r!
#73363
0o!
#73459
1n
1%
#73500
b11001001000000 !
1j
00
#74000
b11101001000000 !
b10101001000000 !
b101001000000 !
1h
0i
0j
10
#74500
b10101001000000 !
1j
00
#75000
b11101001000000 !
b1101001000000 !
1i
0j
10
#75103
0w!
#75104
0x!
#75110
0{!
#75500
b11101001000000 !
1j
00
#75615
1u
1,
#75781
0x
0)
#75956
1v
1+
#76000
b11111001000000 !
b11011001000000 !
b10011001000000 !
b11001000000 !
1g
0h
0i
0j
10
#76135
1r
1/
#76443
0o
0$
#76500
b10011001000000 !
1j
00
#76837
1l
1'
#76948
0q
0"
#77000
b11011001000000 !
b1011001000000 !
1i
0j
10
#77027
0n
0%
#77500
b11011001000000 !
1j
00
#78000
b11111001000000 !
b10111001000000 !
b111001000000 !
1h
0i
0j
10
#78500
b10111001000000 !
1j
00
#79000
b11111001000000 !
b1111001000000 !
1i
0j
10
#79500
b11111001000000 !
1j
00
#80000
b11111101000000 !
b11110101000000 !
b11100101000000 !
b11000101000000 !
b10000101000000 !
b101000000 !
1e
0f
0g
0h
0i
0j
10
#80500
b10000101000000 !
1j
00
#81000
b11000101000000 !
b1000101000000 !
1i
0j
10
#81500
b11000101000000 !
1j
00
#82000
b11100101000000 !
b10100101000000 !
b100101000000 !
1h
0i
0j
10
#82500
b10100101000000 !
1j
00
#83000
b11100101000000 !
b1100101000000 !
1i
0j
10
#83500
b11100101000000 !
1j
00
#84000
b11110101000000 !
b11010101000000 !
b10010101000000 !
b10101000000 !
1g
0h
0i
0j
10
#84500
b10010101000000 !
1j
00
#85000
b11010101000000 !
b1010101000000 !
1i
0j
10
#85500
b11010101000000 !
1j
00
#86000
b11110101000000 !
b10110101000000 !
b110101000000 !
1h
0i
0j
10
#86500
b10110101000000 !
1j
00
#87000
b11110101000000 !
b1110101000000 !
1i
0j
10
#87500
b11110101000000 !
1j
00
#88000
b11111101000000 !
b11101101000000 !
b11001101000000 !
b10001101000000 !
b1101000000 !
1f
0g
0h
0i
0j
10
#88500
b10001101000000 !
1j
00
#89000
b11001101000000 !
b1001101000000 !
1i
0j
10
#89500
b11001101000000 !
1j
00
#90000
b11101101000000 !
b10101101000000 !
b101101000000 !
1h
0i
0j
10
#90500
b10101101000000 !
1j
00
#91000
b11101101000000 !
b1101101000000 !
1i
0j
10
#91500
b11101101000000 !
1j
00
#92000
b11111101000000 !
b11011101000000 !
b10011101000000 !
b11101000000 !
1g
0h
0i
0j
10
#92500
b10011101000000 !
1j
00
#93000
b11011101000000 !
b1011101000000 !
1i
0j
10
#93500
b11011101000000 !
1j
00
#94000
b11111101000000 !
b10111101000000 !
b111101000000 !
1h
0i
0j
10
#94500
b10111101000000 !
1j
00
#95000
b11111101000000 !
b1111101000000 !
1i
0j
10
#95500
b11111101000000 !
1j
00
